<?xml version="1.0" encoding="UTF-8" standalone="no"?>
<!-- Created with Inkscape (http://www.inkscape.org/) -->

<svg
   xmlns:dc="http://purl.org/dc/elements/1.1/"
   xmlns:cc="http://creativecommons.org/ns#"
   xmlns:rdf="http://www.w3.org/1999/02/22-rdf-syntax-ns#"
   xmlns:svg="http://www.w3.org/2000/svg"
   xmlns="http://www.w3.org/2000/svg"
   xmlns:xlink="http://www.w3.org/1999/xlink"
   xmlns:sodipodi="http://sodipodi.sourceforge.net/DTD/sodipodi-0.dtd"
   xmlns:inkscape="http://www.inkscape.org/namespaces/inkscape"
   width="1052.3622"
   height="744.09448"
   id="svg2"
   version="1.1"
   inkscape:version="0.48.3.1 r9886"
   sodipodi:docname="ch02s06.svg">
  <defs
     id="defs4">
    <linearGradient
       inkscape:collect="always"
       xlink:href="#linearGradient2635"
       id="linearGradient2655"
       gradientUnits="userSpaceOnUse"
       gradientTransform="scale(2.143634,0.466498)"
       x1="13.628710"
       y1="101.28460"
       x2="8.6485014"
       y2="74.098007" />
    <linearGradient
       inkscape:collect="always"
       xlink:href="#linearGradient2623"
       id="linearGradient2653"
       gradientUnits="userSpaceOnUse"
       gradientTransform="scale(1.983556,0.504145)"
       x1="10.728384"
       y1="84.029198"
       x2="10.728384"
       y2="92.570930" />
    <linearGradient
       y2="-1.3221773"
       x2="19.994572"
       y1="30.078255"
       x1="21.356108"
       gradientTransform="matrix(1.027870,0.000000,0.000000,0.822296,1.523986,1.001198)"
       gradientUnits="userSpaceOnUse"
       id="linearGradient2445"
       xlink:href="#linearGradient2379"
       inkscape:collect="always" />
    <linearGradient
       gradientUnits="userSpaceOnUse"
       y2="39.031910"
       x2="27.289009"
       y1="10.842293"
       x1="16.119127"
       gradientTransform="matrix(1.289166,0.000000,0.000000,0.922731,-0.789284,-0.503380)"
       id="linearGradient2334"
       xlink:href="#linearGradient2328"
       inkscape:collect="always" />
    <linearGradient
       gradientUnits="userSpaceOnUse"
       y2="53.734985"
       x2="24.418941"
       y1="9.3235140"
       x1="16.851954"
       gradientTransform="matrix(1.208393,0.000000,0.000000,0.984410,-0.789284,-0.503380)"
       id="linearGradient2313"
       xlink:href="#linearGradient2307"
       inkscape:collect="always" />
    <linearGradient
       id="linearGradient2245">
      <stop
         id="stop2247"
         offset="0.0000000"
         style="stop-color:#dde1d9;stop-opacity:1.0000000;" />
      <stop
         id="stop2249"
         offset="1.0000000"
         style="stop-color:#cacdc6;stop-opacity:1.0000000;" />
    </linearGradient>
    <linearGradient
       id="linearGradient2253">
      <stop
         id="stop2255"
         offset="0.0000000"
         style="stop-color:#8f8f8f;stop-opacity:1.0000000;" />
      <stop
         id="stop2257"
         offset="1.0000000"
         style="stop-color:#494949;stop-opacity:1.0000000;" />
    </linearGradient>
    <linearGradient
       id="linearGradient2307"
       inkscape:collect="always">
      <stop
         id="stop2309"
         offset="0"
         style="stop-color:#5a7aa4;stop-opacity:1;" />
      <stop
         id="stop2311"
         offset="1"
         style="stop-color:#5a7aa4;stop-opacity:0;" />
    </linearGradient>
    <linearGradient
       id="linearGradient2328"
       inkscape:collect="always">
      <stop
         id="stop2330"
         offset="0"
         style="stop-color:#ffffff;stop-opacity:1;" />
      <stop
         id="stop2332"
         offset="1"
         style="stop-color:#ffffff;stop-opacity:0;" />
    </linearGradient>
    <linearGradient
       id="linearGradient2379">
      <stop
         id="stop2381"
         offset="0.0000000"
         style="stop-color:#1a4876;stop-opacity:1.0000000;" />
      <stop
         id="stop2383"
         offset="1.0000000"
         style="stop-color:#3f54a3;stop-opacity:0.0000000;" />
    </linearGradient>
    <linearGradient
       id="linearGradient2623">
      <stop
         style="stop-color:#dfdfde;stop-opacity:1.0000000;"
         offset="0.0000000"
         id="stop2625" />
      <stop
         style="stop-color:#9d9f9a;stop-opacity:1.0000000;"
         offset="1.0000000"
         id="stop2627" />
    </linearGradient>
    <linearGradient
       inkscape:collect="always"
       id="linearGradient2635">
      <stop
         style="stop-color:#f9fff5;stop-opacity:1;"
         offset="0"
         id="stop2637" />
      <stop
         style="stop-color:#f9fff5;stop-opacity:0;"
         offset="1"
         id="stop2639" />
    </linearGradient>
    <linearGradient
       id="linearGradient2667">
      <stop
         style="stop-color:#ffffff;stop-opacity:1.0000000;"
         offset="0.0000000"
         id="stop2669" />
      <stop
         style="stop-color:#fcfcff;stop-opacity:0.0000000;"
         offset="1.0000000"
         id="stop2671" />
    </linearGradient>
    <linearGradient
       id="linearGradient2675">
      <stop
         style="stop-color:#5b5b97;stop-opacity:1.0000000;"
         offset="0.0000000"
         id="stop2677" />
      <stop
         style="stop-color:#1b1b43;stop-opacity:1.0000000;"
         offset="1.0000000"
         id="stop2679" />
    </linearGradient>
    <linearGradient
       id="linearGradient2691">
      <stop
         style="stop-color:#868686;stop-opacity:1.0000000;"
         offset="0.0000000"
         id="stop2693" />
      <stop
         style="stop-color:#e9e9e9;stop-opacity:1.0000000;"
         offset="1.0000000"
         id="stop2695" />
    </linearGradient>
    <linearGradient
       id="linearGradient2701">
      <stop
         style="stop-color:#585956;stop-opacity:1.0000000;"
         offset="0.0000000"
         id="stop2703" />
      <stop
         style="stop-color:#bbbeb8;stop-opacity:1.0000000;"
         offset="1.0000000"
         id="stop2705" />
    </linearGradient>
    <linearGradient
       id="linearGradient2711">
      <stop
         style="stop-color:#909090;stop-opacity:1.0000000;"
         offset="0.0000000"
         id="stop2713" />
      <stop
         style="stop-color:#bebebe;stop-opacity:0.0000000;"
         offset="1.0000000"
         id="stop2715" />
    </linearGradient>
    <linearGradient
       id="linearGradient2752">
      <stop
         style="stop-color:#9d9d9d;stop-opacity:1;"
         offset="0"
         id="stop2754" />
      <stop
         style="stop-color:#b9b9b9;stop-opacity:1.0000000;"
         offset="1.0000000"
         id="stop2756" />
    </linearGradient>
    <inkscape:perspective
       id="perspective112"
       inkscape:persp3d-origin="24 : 16 : 1"
       inkscape:vp_z="48 : 24 : 1"
       inkscape:vp_y="0 : 1000 : 0"
       inkscape:vp_x="0 : 24 : 1"
       sodipodi:type="inkscape:persp3d" />
    <radialGradient
       inkscape:collect="always"
       xlink:href="#linearGradient4264"
       id="radialGradient4270"
       cx="23.201941"
       cy="27.096155"
       fx="23.201941"
       fy="27.096155"
       r="23.555494"
       gradientTransform="matrix(1.000000,0.000000,0.000000,0.651032,0.000000,9.455693)"
       gradientUnits="userSpaceOnUse" />
    <linearGradient
       id="linearGradient4184">
      <stop
         style="stop-color:#838383;stop-opacity:1.0000000;"
         offset="0.0000000"
         id="stop4186" />
      <stop
         style="stop-color:#bbbbbb;stop-opacity:0.0000000;"
         offset="1.0000000"
         id="stop4188" />
    </linearGradient>
    <linearGradient
       id="linearGradient4228">
      <stop
         style="stop-color:#bbbbbb;stop-opacity:1.0000000;"
         offset="0.0000000"
         id="stop4230" />
      <stop
         style="stop-color:#9f9f9f;stop-opacity:1.0000000;"
         offset="1.0000000"
         id="stop4232" />
    </linearGradient>
    <linearGradient
       id="linearGradient4244">
      <stop
         style="stop-color:#e4e4e4;stop-opacity:1.0000000;"
         offset="0.0000000"
         id="stop4246" />
      <stop
         style="stop-color:#d3d3d3;stop-opacity:1.0000000;"
         offset="1.0000000"
         id="stop4248" />
    </linearGradient>
    <linearGradient
       inkscape:collect="always"
       id="linearGradient4264">
      <stop
         style="stop-color:#000000;stop-opacity:1;"
         offset="0"
         id="stop4266" />
      <stop
         style="stop-color:#000000;stop-opacity:0;"
         offset="1"
         id="stop4268" />
    </linearGradient>
    <linearGradient
       id="linearGradient4274">
      <stop
         id="stop4276"
         offset="0.0000000"
         style="stop-color:#ffffff;stop-opacity:0.25490198;" />
      <stop
         id="stop4278"
         offset="1.0000000"
         style="stop-color:#ffffff;stop-opacity:1.0000000;" />
    </linearGradient>
    <linearGradient
       id="linearGradient2555">
      <stop
         style="stop-color:#ffffff;stop-opacity:1;"
         offset="0"
         id="stop2557" />
      <stop
         id="stop2561"
         offset="0.50000000"
         style="stop-color:#e6e6e6;stop-opacity:1.0000000;" />
      <stop
         style="stop-color:#ffffff;stop-opacity:1.0000000;"
         offset="0.75000000"
         id="stop2563" />
      <stop
         id="stop2565"
         offset="0.84166664"
         style="stop-color:#e1e1e1;stop-opacity:1.0000000;" />
      <stop
         style="stop-color:#ffffff;stop-opacity:1.0000000;"
         offset="1.0000000"
         id="stop2559" />
    </linearGradient>
    <linearGradient
       id="linearGradient5048">
      <stop
         id="stop5050"
         offset="0"
         style="stop-color:black;stop-opacity:0;" />
      <stop
         style="stop-color:black;stop-opacity:1;"
         offset="0.5"
         id="stop5056" />
      <stop
         id="stop5052"
         offset="1"
         style="stop-color:black;stop-opacity:0;" />
    </linearGradient>
    <inkscape:perspective
       id="perspective79"
       inkscape:persp3d-origin="24 : 16 : 1"
       inkscape:vp_z="48 : 24 : 1"
       inkscape:vp_y="0 : 1000 : 0"
       inkscape:vp_x="0 : 24 : 1"
       sodipodi:type="inkscape:persp3d" />
    <filter
       x="-.17226"
       y="-.092067"
       color-interpolation-filters="sRGB"
       width="1.3445"
       height="1.1841"
       id="filter3904">
      <feGaussianBlur
         stdDeviation="14.227"
         id="feGaussianBlur3906" />
    </filter>
    <filter
       x="-.17226"
       y="-.092067"
       color-interpolation-filters="sRGB"
       width="1.3445"
       height="1.1841"
       id="filter3900">
      <feGaussianBlur
         stdDeviation="14.227"
         id="feGaussianBlur3902" />
    </filter>
    <radialGradient
       r="307.86"
       gradientTransform="matrix(0.38236,0,0,0.38236,-434.57,-63.952)"
       cx="1497.1"
       cy="532.36"
       gradientUnits="userSpaceOnUse"
       id="radialGradient3825">
      <stop
         offset="0"
         style="stop-color:#686868"
         id="stop4562-4" />
      <stop
         offset="1"
         style="stop-color:#e6e6e6;stop-opacity:0"
         id="stop4564-5" />
    </radialGradient>
    <linearGradient
       id="linearGradient4228-9">
      <stop
         style="stop-color:#bbbbbb;stop-opacity:1.0000000;"
         offset="0.0000000"
         id="stop4230-0" />
      <stop
         style="stop-color:#9f9f9f;stop-opacity:1.0000000;"
         offset="1.0000000"
         id="stop4232-1" />
    </linearGradient>
    <radialGradient
       inkscape:collect="always"
       xlink:href="#linearGradient2454"
       id="radialGradient4275"
       gradientUnits="userSpaceOnUse"
       gradientTransform="scale(1.925808,0.519262)"
       cx="12.57571"
       cy="67.501709"
       fx="12.57571"
       fy="67.501709"
       r="8.7662792" />
    <linearGradient
       id="linearGradient2454"
       inkscape:collect="always">
      <stop
         id="stop2456"
         offset="0"
         style="stop-color:#000000;stop-opacity:1;" />
      <stop
         id="stop2458"
         offset="1"
         style="stop-color:#000000;stop-opacity:0;" />
    </linearGradient>
    <linearGradient
       inkscape:collect="always"
       xlink:href="#linearGradient2985"
       id="linearGradient4277"
       gradientUnits="userSpaceOnUse"
       gradientTransform="scale(1.492875,0.669848)"
       x1="-23.8857"
       y1="49.953003"
       x2="-23.8857"
       y2="44.878883" />
    <linearGradient
       inkscape:collect="always"
       id="linearGradient2985">
      <stop
         style="stop-color:#d8dfd6;stop-opacity:1;"
         offset="0"
         id="stop2987" />
      <stop
         style="stop-color:#d8dfd6;stop-opacity:0;"
         offset="1"
         id="stop2989" />
    </linearGradient>
    <radialGradient
       inkscape:collect="always"
       xlink:href="#linearGradient2454"
       id="radialGradient4279"
       gradientUnits="userSpaceOnUse"
       gradientTransform="scale(1.925808,0.519262)"
       cx="12.57571"
       cy="67.501709"
       fx="12.57571"
       fy="67.501709"
       r="8.7662792" />
    <linearGradient
       id="linearGradient2701-7">
      <stop
         style="stop-color:#585956;stop-opacity:1.0000000;"
         offset="0.0000000"
         id="stop2703-3" />
      <stop
         style="stop-color:#bbbeb8;stop-opacity:1.0000000;"
         offset="1.0000000"
         id="stop2705-5" />
    </linearGradient>
    <linearGradient
       id="linearGradient2245-3">
      <stop
         id="stop2247-0"
         offset="0.0000000"
         style="stop-color:#dde1d9;stop-opacity:1.0000000;" />
      <stop
         id="stop2249-0"
         offset="1.0000000"
         style="stop-color:#cacdc6;stop-opacity:1.0000000;" />
    </linearGradient>
    <linearGradient
       id="linearGradient2253-4">
      <stop
         id="stop2255-0"
         offset="0.0000000"
         style="stop-color:#8f8f8f;stop-opacity:1.0000000;" />
      <stop
         id="stop2257-4"
         offset="1.0000000"
         style="stop-color:#494949;stop-opacity:1.0000000;" />
    </linearGradient>
    <linearGradient
       id="linearGradient2675-5">
      <stop
         style="stop-color:#5b5b97;stop-opacity:1.0000000;"
         offset="0.0000000"
         id="stop2677-0" />
      <stop
         style="stop-color:#1b1b43;stop-opacity:1.0000000;"
         offset="1.0000000"
         id="stop2679-0" />
    </linearGradient>
    <linearGradient
       inkscape:collect="always"
       id="linearGradient2683">
      <stop
         style="stop-color:#000000;stop-opacity:1;"
         offset="0"
         id="stop2685" />
      <stop
         style="stop-color:#000000;stop-opacity:0;"
         offset="1"
         id="stop2687" />
    </linearGradient>
    <linearGradient
       id="linearGradient2415"
       inkscape:collect="always">
      <stop
         id="stop2417"
         offset="0"
         style="stop-color:#ffffff;stop-opacity:1;" />
      <stop
         id="stop2419"
         offset="1"
         style="stop-color:#ffffff;stop-opacity:0;" />
    </linearGradient>
    <linearGradient
       id="linearGradient2667-9">
      <stop
         style="stop-color:#ffffff;stop-opacity:1.0000000;"
         offset="0.0000000"
         id="stop2669-4" />
      <stop
         style="stop-color:#fcfcff;stop-opacity:0.0000000;"
         offset="1.0000000"
         id="stop2671-1" />
    </linearGradient>
    <radialGradient
       inkscape:collect="always"
       xlink:href="#linearGradient2454"
       id="radialGradient4295"
       gradientUnits="userSpaceOnUse"
       gradientTransform="scale(1.925808,0.519262)"
       cx="12.57571"
       cy="67.501709"
       fx="12.57571"
       fy="67.501709"
       r="8.7662792" />
    <linearGradient
       id="linearGradient8693">
      <stop
         id="stop8695"
         offset="0.0000000"
         style="stop-color:#dde1d9;stop-opacity:1.0000000;" />
      <stop
         id="stop8697"
         offset="1.0000000"
         style="stop-color:#cacdc6;stop-opacity:1.0000000;" />
    </linearGradient>
    <linearGradient
       id="linearGradient8700">
      <stop
         id="stop8702"
         offset="0.0000000"
         style="stop-color:#8f8f8f;stop-opacity:1.0000000;" />
      <stop
         id="stop8704"
         offset="1.0000000"
         style="stop-color:#494949;stop-opacity:1.0000000;" />
    </linearGradient>
    <linearGradient
       id="linearGradient2752-1">
      <stop
         style="stop-color:#9d9d9d;stop-opacity:1;"
         offset="0"
         id="stop2754-7" />
      <stop
         style="stop-color:#b9b9b9;stop-opacity:1.0000000;"
         offset="1.0000000"
         id="stop2756-7" />
    </linearGradient>
    <linearGradient
       id="linearGradient8711">
      <stop
         style="stop-color:#9d9d9d;stop-opacity:1;"
         offset="0"
         id="stop8713" />
      <stop
         style="stop-color:#b9b9b9;stop-opacity:1.0000000;"
         offset="1.0000000"
         id="stop8715" />
    </linearGradient>
    <linearGradient
       id="linearGradient8718">
      <stop
         style="stop-color:#9d9d9d;stop-opacity:1;"
         offset="0"
         id="stop8720" />
      <stop
         style="stop-color:#b9b9b9;stop-opacity:1.0000000;"
         offset="1.0000000"
         id="stop8722" />
    </linearGradient>
    <linearGradient
       inkscape:collect="always"
       id="linearGradient2635-0">
      <stop
         style="stop-color:#f9fff5;stop-opacity:1;"
         offset="0"
         id="stop2637-2" />
      <stop
         style="stop-color:#f9fff5;stop-opacity:0;"
         offset="1"
         id="stop2639-3" />
    </linearGradient>
    <linearGradient
       inkscape:collect="always"
       xlink:href="#linearGradient2711-9"
       id="linearGradient4309"
       gradientUnits="userSpaceOnUse"
       x1="34.300991"
       y1="3.9384086"
       x2="35.520542"
       y2="3.8451097" />
    <linearGradient
       id="linearGradient2711-9">
      <stop
         style="stop-color:#909090;stop-opacity:1.0000000;"
         offset="0.0000000"
         id="stop2713-3" />
      <stop
         style="stop-color:#bebebe;stop-opacity:0.0000000;"
         offset="1.0000000"
         id="stop2715-6" />
    </linearGradient>
    <linearGradient
       inkscape:collect="always"
       xlink:href="#linearGradient2711-9"
       id="linearGradient4311"
       gradientUnits="userSpaceOnUse"
       x1="34.300991"
       y1="3.9384086"
       x2="35.520542"
       y2="3.8451097" />
    <linearGradient
       id="linearGradient8733">
      <stop
         style="stop-color:#909090;stop-opacity:1.0000000;"
         offset="0.0000000"
         id="stop8735" />
      <stop
         style="stop-color:#bebebe;stop-opacity:0.0000000;"
         offset="1.0000000"
         id="stop8737" />
    </linearGradient>
    <linearGradient
       inkscape:collect="always"
       xlink:href="#linearGradient2711-9"
       id="linearGradient4313"
       gradientUnits="userSpaceOnUse"
       x1="34.300991"
       y1="3.9384086"
       x2="35.520542"
       y2="3.8451097" />
    <linearGradient
       id="linearGradient8740">
      <stop
         style="stop-color:#909090;stop-opacity:1.0000000;"
         offset="0.0000000"
         id="stop8742" />
      <stop
         style="stop-color:#bebebe;stop-opacity:0.0000000;"
         offset="1.0000000"
         id="stop8744" />
    </linearGradient>
    <linearGradient
       inkscape:collect="always"
       xlink:href="#linearGradient2711-9"
       id="linearGradient4315"
       gradientUnits="userSpaceOnUse"
       x1="34.300991"
       y1="3.9384086"
       x2="35.520542"
       y2="3.8451097" />
    <linearGradient
       id="linearGradient8747">
      <stop
         style="stop-color:#909090;stop-opacity:1.0000000;"
         offset="0.0000000"
         id="stop8749" />
      <stop
         style="stop-color:#bebebe;stop-opacity:0.0000000;"
         offset="1.0000000"
         id="stop8751" />
    </linearGradient>
    <linearGradient
       inkscape:collect="always"
       xlink:href="#linearGradient2711-9"
       id="linearGradient4317"
       gradientUnits="userSpaceOnUse"
       x1="34.300991"
       y1="3.9384086"
       x2="35.520542"
       y2="3.8451097" />
    <linearGradient
       id="linearGradient8754">
      <stop
         style="stop-color:#909090;stop-opacity:1.0000000;"
         offset="0.0000000"
         id="stop8756" />
      <stop
         style="stop-color:#bebebe;stop-opacity:0.0000000;"
         offset="1.0000000"
         id="stop8758" />
    </linearGradient>
    <radialGradient
       id="radialGradient858"
       cx="79.895966"
       cy="77.944687"
       fx="79.895966"
       fy="77.944687"
       r="68.379425"
       gradientUnits="userSpaceOnUse">
      <stop
         offset="0"
         style="stop-color:#000000;stop-opacity:.67843"
         id="stop1401" />
      <stop
         offset="0.57"
         style="stop-color:#000000;stop-opacity:.32941"
         id="stop1403" />
      <stop
         offset="1"
         style="stop-color:#000000;stop-opacity:0"
         id="stop1402" />
    </radialGradient>
    <linearGradient
       inkscape:collect="always"
       xlink:href="#linearGradient2635-0"
       id="linearGradient9075"
       gradientUnits="userSpaceOnUse"
       gradientTransform="matrix(8.8149611,0,0,1.9074222,290.43747,825.06295)"
       x1="13.62871"
       y1="101.2846"
       x2="8.6485014"
       y2="74.098007" />
    <linearGradient
       inkscape:collect="always"
       xlink:href="#linearGradient2752-1"
       id="linearGradient9078"
       gradientUnits="userSpaceOnUse"
       gradientTransform="matrix(9.4984716,0,0,1.7701608,286.32531,827.14344)"
       x1="8.1134243"
       y1="88.509071"
       x2="8.1134233"
       y2="100.20015" />
    <linearGradient
       inkscape:collect="always"
       xlink:href="#linearGradient2752-1"
       id="linearGradient9081"
       gradientUnits="userSpaceOnUse"
       gradientTransform="matrix(9.4984716,0,0,1.7701608,286.32531,827.14344)"
       x1="8.1134243"
       y1="88.509071"
       x2="8.1134233"
       y2="100.20015" />
    <linearGradient
       inkscape:collect="always"
       xlink:href="#linearGradient2752-1"
       id="linearGradient9084"
       gradientUnits="userSpaceOnUse"
       gradientTransform="matrix(9.4984716,0,0,1.7701608,286.32531,827.14344)"
       x1="8.1134243"
       y1="88.509071"
       x2="8.1134233"
       y2="100.20015" />
    <linearGradient
       inkscape:collect="always"
       xlink:href="#linearGradient2245-3"
       id="linearGradient9090"
       gradientUnits="userSpaceOnUse"
       gradientTransform="matrix(4.6461748,0,0,3.6188554,286.32531,827.14344)"
       x1="18.316999"
       y1="48.643234"
       x2="18.176752"
       y2="52.536461" />
    <linearGradient
       inkscape:collect="always"
       xlink:href="#linearGradient2253-4"
       id="linearGradient9092"
       gradientUnits="userSpaceOnUse"
       gradientTransform="matrix(4.5414546,0,0,3.7022999,286.32531,827.14344)"
       x1="10.390738"
       y1="5.3817744"
       x2="32.536823"
       y2="31.246054" />
    <linearGradient
       inkscape:collect="always"
       xlink:href="#linearGradient2667-9"
       id="linearGradient9096"
       gradientUnits="userSpaceOnUse"
       gradientTransform="matrix(5.0948688,0,0,3.6633907,288.75376,821.69909)"
       x1="11.492236"
       y1="1.6537577"
       x2="17.199417"
       y2="26.729263" />
    <linearGradient
       inkscape:collect="always"
       xlink:href="#linearGradient2415"
       id="linearGradient9099"
       gradientUnits="userSpaceOnUse"
       gradientTransform="matrix(4.5565545,0,0,3.6900334,290.43747,831.23225)"
       x1="17.698339"
       y1="13.004725"
       x2="34.974548"
       y2="55.200756" />
    <linearGradient
       inkscape:collect="always"
       xlink:href="#linearGradient2683"
       id="linearGradient9102"
       gradientUnits="userSpaceOnUse"
       gradientTransform="matrix(23.460514,0,0,0.71668681,290.43747,824.36561)"
       x1="3.7069976"
       y1="171.29134"
       x2="3.7069974"
       y2="162.45061" />
    <linearGradient
       inkscape:collect="always"
       xlink:href="#linearGradient2675-5"
       id="linearGradient9105"
       gradientUnits="userSpaceOnUse"
       gradientTransform="matrix(4.8282447,0,0,3.8656888,289.29357,821.69909)"
       x1="19.150396"
       y1="32.622238"
       x2="16.315819"
       y2="8.8666229" />
    <linearGradient
       inkscape:collect="always"
       xlink:href="#linearGradient2245-3"
       id="linearGradient9108"
       gradientUnits="userSpaceOnUse"
       gradientTransform="matrix(4.6461748,0,0,3.6188554,279.64305,821.81011)"
       x1="8.6116238"
       y1="7.2293582"
       x2="34.784473"
       y2="33.339787" />
    <linearGradient
       inkscape:collect="always"
       xlink:href="#linearGradient2253-4"
       id="linearGradient9110"
       gradientUnits="userSpaceOnUse"
       gradientTransform="matrix(4.5414546,0,0,3.7022999,286.32531,827.14344)"
       x1="10.390738"
       y1="5.3817744"
       x2="32.536823"
       y2="31.246054" />
    <linearGradient
       inkscape:collect="always"
       xlink:href="#linearGradient2701-7"
       id="linearGradient9113"
       gradientUnits="userSpaceOnUse"
       gradientTransform="matrix(7.4690971,0,0,2.2511195,286.32531,827.14344)"
       x1="12.206709"
       y1="53.535141"
       x2="12.127711"
       y2="64.892525" />
  </defs>
  <sodipodi:namedview
     id="base"
     pagecolor="#ffffff"
     bordercolor="#666666"
     borderopacity="1.0"
     inkscape:pageopacity="0.0"
     inkscape:pageshadow="2"
     inkscape:zoom="0.7"
     inkscape:cx="644.76202"
     inkscape:cy="254.08161"
     inkscape:document-units="px"
     inkscape:current-layer="layer2"
     showgrid="false"
     showguides="true"
     inkscape:guide-bbox="true"
     inkscape:window-width="1600"
     inkscape:window-height="1157"
     inkscape:window-x="1600"
     inkscape:window-y="20"
     inkscape:window-maximized="1" />
  <metadata
     id="metadata7">
    <rdf:RDF>
      <cc:Work
         rdf:about="">
        <dc:format>image/svg+xml</dc:format>
        <dc:type
           rdf:resource="http://purl.org/dc/dcmitype/StillImage" />
        <dc:title></dc:title>
      </cc:Work>
    </rdf:RDF>
  </metadata>
  <g
     inkscape:label="base"
     inkscape:groupmode="layer"
     id="layer1"
     transform="translate(0,-308.2677)"
     sodipodi:insensitive="true">
    <rect
       y="310.02078"
       x="-2.5917625"
       height="744.6828"
       width="1058.041"
       id="rect14123"
       style="fill:#babdb6;fill-opacity:1;stroke:#000000;stroke-width:4;stroke-linecap:round;stroke-linejoin:round;stroke-miterlimit:4;stroke-opacity:1;stroke-dasharray:none;stroke-dashoffset:0" />
    <path
       style="fill:#d3d7cf;fill-opacity:1;stroke:none"
       d="m 18.59375,390.0802 0,627.0312 481.3125,0 0,-627.0312 -481.3125,0 z m 549.875,0 0,627.0312 465.31245,0 0,-627.0312 -465.31245,0 z"
       id="rect14135"
       inkscape:connector-curvature="0" />
    <rect
       style="fill:#eeeeec;fill-opacity:1;stroke:none"
       id="rect14167"
       width="482.32272"
       height="22.154572"
       x="17.167809"
       y="351.09213" />
    <rect
       y="351.09213"
       x="564.59644"
       height="22.154572"
       width="468.0369"
       id="rect14169"
       style="fill:#eeeeec;fill-opacity:1;stroke:none" />
  </g>
  <g
     inkscape:groupmode="layer"
     id="layer2"
     inkscape:label="Layer">
    <path
       style="fill:#8b8b8b;stroke:none;stroke-width:1px;stroke-linecap:butt;stroke-linejoin:miter;stroke-opacity:1;fill-opacity:1"
       d="m 535.71429,288.3802 -30,55.71428 48.57142,32.85715 28.57143,-47.14286 -5.71428,-20 z"
       id="path9204"
       inkscape:connector-curvature="0" />
    <g
       id="g7699"
       transform="translate(4.2857143,-2.8571429)">
      <path
         style="fill:#b3b3b3;fill-opacity:1;stroke:#000000;stroke-width:4;stroke-linecap:round;stroke-linejoin:round;stroke-miterlimit:4;stroke-opacity:1;stroke-dasharray:none;stroke-dashoffset:0;display:inline"
         d="m 96.375349,192.14461 0,54.5653 -52.7507,0 0,-66.7222 0,0 41.6255,0 z"
         id="path10851"
         inkscape:connector-curvature="0"
         sodipodi:nodetypes="cccccc" />
      <path
         style="fill:#292929;fill-opacity:1;stroke:#000000;stroke-width:4;stroke-linecap:round;stroke-linejoin:round;stroke-miterlimit:4;stroke-opacity:1;stroke-dasharray:none;stroke-dashoffset:0;display:inline"
         d="m 94.860049,193.31351 -11.1251,0 0,-12.0631"
         id="path10853"
         inkscape:connector-curvature="0" />
      <path
         inkscape:connector-curvature="0"
         id="path10855"
         d="m 53.440149,202.48131 32.3249,0"
         style="fill:none;stroke:#000000;stroke-width:3;stroke-linecap:butt;stroke-linejoin:miter;stroke-miterlimit:4;stroke-opacity:1;stroke-dasharray:none;display:inline" />
      <path
         style="fill:none;stroke:#000000;stroke-width:3;stroke-linecap:butt;stroke-linejoin:miter;stroke-miterlimit:4;stroke-opacity:1;stroke-dasharray:none;display:inline"
         d="m 53.440149,210.48131 32.3249,0"
         id="path10857"
         inkscape:connector-curvature="0" />
      <path
         inkscape:connector-curvature="0"
         id="path10859"
         d="m 53.440149,218.48131 32.3249,0"
         style="fill:none;stroke:#000000;stroke-width:3;stroke-linecap:butt;stroke-linejoin:miter;stroke-miterlimit:4;stroke-opacity:1;stroke-dasharray:none;display:inline" />
      <path
         style="fill:none;stroke:#000000;stroke-width:3;stroke-linecap:butt;stroke-linejoin:miter;stroke-miterlimit:4;stroke-opacity:1;stroke-dasharray:none;display:inline"
         d="m 53.440149,226.48131 32.3249,0"
         id="path10861"
         inkscape:connector-curvature="0" />
      <path
         inkscape:connector-curvature="0"
         id="path10863"
         d="m 53.440149,234.48131 32.3249,0"
         style="fill:none;stroke:#000000;stroke-width:3;stroke-linecap:butt;stroke-linejoin:miter;stroke-miterlimit:4;stroke-opacity:1;stroke-dasharray:none;display:inline" />
    </g>
    <g
       style="display:inline"
       id="g4858"
       transform="translate(-105.23408,-74.523266)"
       inkscape:tile-cx="668.0152"
       inkscape:tile-cy="236.503"
       inkscape:tile-w="71.060669"
       inkscape:tile-h="48.596646"
       inkscape:tile-x0="632.48487"
       inkscape:tile-y0="212.20468">
      <path
         sodipodi:nodetypes="cccccscccccscccscc"
         style="fill:#445f80;fill-opacity:1;stroke:#000000;stroke-width:2;stroke-miterlimit:4;stroke-opacity:1;stroke-dasharray:none"
         inkscape:connector-curvature="0"
         id="use4730"
         d="m 158.61114,177.86133 c -1.106,1.2e-4 -2.37741,-0.002 -3.84406,0 l -4.81468,0.0535 c -5.70234,0.0656 -6.15643,0.0122 -6.5127,1.39651 -0.1282,0.35793 -0.37904,0.8547 -0.55532,1.081 -0.30922,0.39695 -0.32349,-10.76759 -0.32349,15.56517 0,15.01133 0.0551,7.14407 0.11861,7.20618 0.0635,0.0635 16.03734,0.0941 35.49726,0.0701 l 35.37822,-0.0431 0.0485,-6.14514 c 0.0424,-25.54423 0.0325,-14.23327 -0.28036,-14.53346 -0.17747,-0.17007 -0.41939,-0.59995 -0.53375,-0.9543 -0.11436,-0.35435 -0.41446,-0.80675 -0.66854,-1.00819 -0.45185,-0.35834 -0.56152,-0.36479 -5.17044,-0.28036 -12.99691,0.0806 -25.66155,0.19822 -39.41188,0.1213 -0.4749,-0.1567 -0.67561,-0.36023 -1.00821,-1.08099 -0.61312,-1.32863 -0.178,-1.45102 -7.91998,-1.45005 z" />
      <path
         sodipodi:nodetypes="ccssccscc"
         inkscape:connector-curvature="0"
         id="use4732"
         style="color:#000000;fill:#567fb3;fill-opacity:1;stroke:#000000;stroke-width:2;stroke-miterlimit:4;stroke-opacity:1;stroke-dasharray:none"
         d="m 169.06673,185.63234 c -2.95055,0 -4.05272,0.98902 -5.19823,3.34614 -4.93886,0.0548 -17.16185,0.0774 -18.04522,0.0774 -0.88343,0 -3.1912,1.41737 -3.1912,3.17552 l 0,34.22474 70.91867,0 0,-37.64766 c 0,-1.75822 -1.42436,-3.17552 -3.1912,-3.17552 z" />
    </g>
    <path
       style="fill:#d6d6d6;fill-opacity:1;stroke:#717171;stroke-width:4;stroke-linecap:round;stroke-linejoin:round;stroke-miterlimit:4;stroke-opacity:1;stroke-dasharray:none;stroke-dashoffset:0;display:inline"
       d="m 100.66106,289.28747 0,54.5653 -52.750697,0 0,-66.7222 0,0 41.6255,0 z"
       id="path7710"
       inkscape:connector-curvature="0"
       sodipodi:nodetypes="cccccc" />
    <path
       style="fill:#d6d6d6;fill-opacity:1;stroke:#717171;stroke-width:4;stroke-linecap:round;stroke-linejoin:round;stroke-miterlimit:4;stroke-opacity:1;stroke-dasharray:none;stroke-dashoffset:0;display:inline"
       d="m 99.145763,290.45637 -11.1251,0 0,-12.0631"
       id="path7712"
       inkscape:connector-curvature="0" />
    <path
       inkscape:connector-curvature="0"
       id="path7714"
       d="m 57.725863,299.62417 32.3249,0"
       style="fill:#d6d6d6;fill-opacity:1;stroke:#6b6b6b;stroke-width:3;stroke-linecap:butt;stroke-linejoin:miter;stroke-miterlimit:4;stroke-opacity:1;stroke-dasharray:none;display:inline" />
    <path
       style="fill:#d6d6d6;fill-opacity:1;stroke:#6b6b6b;stroke-width:3;stroke-linecap:butt;stroke-linejoin:miter;stroke-miterlimit:4;stroke-opacity:1;stroke-dasharray:none;display:inline"
       d="m 57.725863,307.62417 32.3249,0"
       id="path7716"
       inkscape:connector-curvature="0" />
    <path
       inkscape:connector-curvature="0"
       id="path7718"
       d="m 57.725863,315.62417 32.3249,0"
       style="fill:#d6d6d6;fill-opacity:1;stroke:#6b6b6b;stroke-width:3;stroke-linecap:butt;stroke-linejoin:miter;stroke-miterlimit:4;stroke-opacity:1;stroke-dasharray:none;display:inline" />
    <path
       style="fill:#d6d6d6;fill-opacity:1;stroke:#6b6b6b;stroke-width:3;stroke-linecap:butt;stroke-linejoin:miter;stroke-miterlimit:4;stroke-opacity:1;stroke-dasharray:none;display:inline"
       d="m 57.725863,323.62417 32.3249,0"
       id="path7720"
       inkscape:connector-curvature="0" />
    <path
       inkscape:connector-curvature="0"
       id="path7722"
       d="m 57.725863,331.62417 32.3249,0"
       style="fill:#d6d6d6;fill-opacity:1;stroke:#6b6b6b;stroke-width:3;stroke-linecap:butt;stroke-linejoin:miter;stroke-miterlimit:4;stroke-opacity:1;stroke-dasharray:none;display:inline" />
    <g
       id="g7724"
       transform="translate(4.2857143,197.14286)">
      <path
         style="fill:#b3b3b3;fill-opacity:1;stroke:#000000;stroke-width:4;stroke-linecap:round;stroke-linejoin:round;stroke-miterlimit:4;stroke-opacity:1;stroke-dasharray:none;stroke-dashoffset:0;display:inline"
         d="m 96.375349,192.14461 0,54.5653 -52.7507,0 0,-66.7222 0,0 41.6255,0 z"
         id="path7726"
         inkscape:connector-curvature="0"
         sodipodi:nodetypes="cccccc" />
      <path
         style="fill:#292929;fill-opacity:1;stroke:#000000;stroke-width:4;stroke-linecap:round;stroke-linejoin:round;stroke-miterlimit:4;stroke-opacity:1;stroke-dasharray:none;stroke-dashoffset:0;display:inline"
         d="m 94.860049,193.31351 -11.1251,0 0,-12.0631"
         id="path7728"
         inkscape:connector-curvature="0" />
      <path
         inkscape:connector-curvature="0"
         id="path7730"
         d="m 53.440149,202.48131 32.3249,0"
         style="fill:none;stroke:#000000;stroke-width:3;stroke-linecap:butt;stroke-linejoin:miter;stroke-miterlimit:4;stroke-opacity:1;stroke-dasharray:none;display:inline" />
      <path
         style="fill:none;stroke:#000000;stroke-width:3;stroke-linecap:butt;stroke-linejoin:miter;stroke-miterlimit:4;stroke-opacity:1;stroke-dasharray:none;display:inline"
         d="m 53.440149,210.48131 32.3249,0"
         id="path7732"
         inkscape:connector-curvature="0" />
      <path
         inkscape:connector-curvature="0"
         id="path7734"
         d="m 53.440149,218.48131 32.3249,0"
         style="fill:none;stroke:#000000;stroke-width:3;stroke-linecap:butt;stroke-linejoin:miter;stroke-miterlimit:4;stroke-opacity:1;stroke-dasharray:none;display:inline" />
      <path
         style="fill:none;stroke:#000000;stroke-width:3;stroke-linecap:butt;stroke-linejoin:miter;stroke-miterlimit:4;stroke-opacity:1;stroke-dasharray:none;display:inline"
         d="m 53.440149,226.48131 32.3249,0"
         id="path7736"
         inkscape:connector-curvature="0" />
      <path
         inkscape:connector-curvature="0"
         id="path7738"
         d="m 53.440149,234.48131 32.3249,0"
         style="fill:none;stroke:#000000;stroke-width:3;stroke-linecap:butt;stroke-linejoin:miter;stroke-miterlimit:4;stroke-opacity:1;stroke-dasharray:none;display:inline" />
    </g>
    <g
       transform="translate(4.2857143,297.14286)"
       id="g7740">
      <path
         sodipodi:nodetypes="cccccc"
         inkscape:connector-curvature="0"
         id="path7742"
         d="m 96.375349,192.14461 0,54.5653 -52.7507,0 0,-66.7222 0,0 41.6255,0 z"
         style="fill:#b3b3b3;fill-opacity:1;stroke:#000000;stroke-width:4;stroke-linecap:round;stroke-linejoin:round;stroke-miterlimit:4;stroke-opacity:1;stroke-dasharray:none;stroke-dashoffset:0;display:inline" />
      <path
         inkscape:connector-curvature="0"
         id="path7744"
         d="m 94.860049,193.31351 -11.1251,0 0,-12.0631"
         style="fill:#292929;fill-opacity:1;stroke:#000000;stroke-width:4;stroke-linecap:round;stroke-linejoin:round;stroke-miterlimit:4;stroke-opacity:1;stroke-dasharray:none;stroke-dashoffset:0;display:inline" />
      <path
         style="fill:none;stroke:#000000;stroke-width:3;stroke-linecap:butt;stroke-linejoin:miter;stroke-miterlimit:4;stroke-opacity:1;stroke-dasharray:none;display:inline"
         d="m 53.440149,202.48131 32.3249,0"
         id="path7746"
         inkscape:connector-curvature="0" />
      <path
         inkscape:connector-curvature="0"
         id="path7748"
         d="m 53.440149,210.48131 32.3249,0"
         style="fill:none;stroke:#000000;stroke-width:3;stroke-linecap:butt;stroke-linejoin:miter;stroke-miterlimit:4;stroke-opacity:1;stroke-dasharray:none;display:inline" />
      <path
         style="fill:none;stroke:#000000;stroke-width:3;stroke-linecap:butt;stroke-linejoin:miter;stroke-miterlimit:4;stroke-opacity:1;stroke-dasharray:none;display:inline"
         d="m 53.440149,218.48131 32.3249,0"
         id="path7750"
         inkscape:connector-curvature="0" />
      <path
         inkscape:connector-curvature="0"
         id="path7752"
         d="m 53.440149,226.48131 32.3249,0"
         style="fill:none;stroke:#000000;stroke-width:3;stroke-linecap:butt;stroke-linejoin:miter;stroke-miterlimit:4;stroke-opacity:1;stroke-dasharray:none;display:inline" />
      <path
         style="fill:none;stroke:#000000;stroke-width:3;stroke-linecap:butt;stroke-linejoin:miter;stroke-miterlimit:4;stroke-opacity:1;stroke-dasharray:none;display:inline"
         d="m 53.440149,234.48131 32.3249,0"
         id="path7754"
         inkscape:connector-curvature="0" />
    </g>
    <g
       transform="translate(564.28571,-2.8571429)"
       id="g7756">
      <path
         sodipodi:nodetypes="cccccc"
         inkscape:connector-curvature="0"
         id="path7758"
         d="m 96.375349,192.14461 0,54.5653 -52.7507,0 0,-66.7222 0,0 41.6255,0 z"
         style="fill:#b3b3b3;fill-opacity:1;stroke:#000000;stroke-width:4;stroke-linecap:round;stroke-linejoin:round;stroke-miterlimit:4;stroke-opacity:1;stroke-dasharray:none;stroke-dashoffset:0;display:inline" />
      <path
         inkscape:connector-curvature="0"
         id="path7760"
         d="m 94.860049,193.31351 -11.1251,0 0,-12.0631"
         style="fill:#292929;fill-opacity:1;stroke:#000000;stroke-width:4;stroke-linecap:round;stroke-linejoin:round;stroke-miterlimit:4;stroke-opacity:1;stroke-dasharray:none;stroke-dashoffset:0;display:inline" />
      <path
         style="fill:none;stroke:#000000;stroke-width:3;stroke-linecap:butt;stroke-linejoin:miter;stroke-miterlimit:4;stroke-opacity:1;stroke-dasharray:none;display:inline"
         d="m 53.440149,202.48131 32.3249,0"
         id="path7762"
         inkscape:connector-curvature="0" />
      <path
         inkscape:connector-curvature="0"
         id="path7764"
         d="m 53.440149,210.48131 32.3249,0"
         style="fill:none;stroke:#000000;stroke-width:3;stroke-linecap:butt;stroke-linejoin:miter;stroke-miterlimit:4;stroke-opacity:1;stroke-dasharray:none;display:inline" />
      <path
         style="fill:none;stroke:#000000;stroke-width:3;stroke-linecap:butt;stroke-linejoin:miter;stroke-miterlimit:4;stroke-opacity:1;stroke-dasharray:none;display:inline"
         d="m 53.440149,218.48131 32.3249,0"
         id="path7766"
         inkscape:connector-curvature="0" />
      <path
         inkscape:connector-curvature="0"
         id="path7768"
         d="m 53.440149,226.48131 32.3249,0"
         style="fill:none;stroke:#000000;stroke-width:3;stroke-linecap:butt;stroke-linejoin:miter;stroke-miterlimit:4;stroke-opacity:1;stroke-dasharray:none;display:inline" />
      <path
         style="fill:none;stroke:#000000;stroke-width:3;stroke-linecap:butt;stroke-linejoin:miter;stroke-miterlimit:4;stroke-opacity:1;stroke-dasharray:none;display:inline"
         d="m 53.440149,234.48131 32.3249,0"
         id="path7770"
         inkscape:connector-curvature="0" />
    </g>
    <g
       inkscape:tile-y0="212.20468"
       inkscape:tile-x0="632.48487"
       inkscape:tile-h="48.596646"
       inkscape:tile-w="71.060669"
       inkscape:tile-cy="236.503"
       inkscape:tile-cx="668.0152"
       transform="translate(454.76592,-74.523266)"
       id="g7772"
       style="display:inline">
      <path
         d="m 158.61114,177.86133 c -1.106,1.2e-4 -2.37741,-0.002 -3.84406,0 l -4.81468,0.0535 c -5.70234,0.0656 -6.15643,0.0122 -6.5127,1.39651 -0.1282,0.35793 -0.37904,0.8547 -0.55532,1.081 -0.30922,0.39695 -0.32349,-10.76759 -0.32349,15.56517 0,15.01133 0.0551,7.14407 0.11861,7.20618 0.0635,0.0635 16.03734,0.0941 35.49726,0.0701 l 35.37822,-0.0431 0.0485,-6.14514 c 0.0424,-25.54423 0.0325,-14.23327 -0.28036,-14.53346 -0.17747,-0.17007 -0.41939,-0.59995 -0.53375,-0.9543 -0.11436,-0.35435 -0.41446,-0.80675 -0.66854,-1.00819 -0.45185,-0.35834 -0.56152,-0.36479 -5.17044,-0.28036 -12.99691,0.0806 -25.66155,0.19822 -39.41188,0.1213 -0.4749,-0.1567 -0.67561,-0.36023 -1.00821,-1.08099 -0.61312,-1.32863 -0.178,-1.45102 -7.91998,-1.45005 z"
         id="path7774"
         inkscape:connector-curvature="0"
         style="fill:#445f80;fill-opacity:1;stroke:#000000;stroke-width:2;stroke-miterlimit:4;stroke-opacity:1;stroke-dasharray:none"
         sodipodi:nodetypes="cccccscccccscccscc" />
      <path
         d="m 169.06673,185.63234 c -2.95055,0 -4.05272,0.98902 -5.19823,3.34614 -4.93886,0.0548 -17.16185,0.0774 -18.04522,0.0774 -0.88343,0 -3.1912,1.41737 -3.1912,3.17552 l 0,34.22474 70.91867,0 0,-37.64766 c 0,-1.75822 -1.42436,-3.17552 -3.1912,-3.17552 z"
         style="color:#000000;fill:#567fb3;fill-opacity:1;stroke:#000000;stroke-width:2;stroke-miterlimit:4;stroke-opacity:1;stroke-dasharray:none"
         id="path7776"
         inkscape:connector-curvature="0"
         sodipodi:nodetypes="ccssccscc" />
    </g>
    <g
       id="g9125"
       transform="matrix(0.33060738,0,0,0.33060738,342.91385,-261.58554)">
      <path
         transform="matrix(4.1121577,0,0,5.5973044,278.18919,771.46557)"
         d="m 41.10058,35.051105 a 16.882174,4.552 0 1 1 -33.7643469,0 16.882174,4.552 0 1 1 33.7643469,0 z"
         sodipodi:ry="4.552"
         sodipodi:rx="16.882174"
         sodipodi:cy="35.051105"
         sodipodi:cx="24.218407"
         id="path2452"
         style="color:#000000;fill:url(#radialGradient4275);fill-opacity:1;fill-rule:evenodd;stroke:none;stroke-width:1;marker:none;visibility:visible;display:inline;overflow:visible"
         sodipodi:type="arc" />
      <path
         transform="matrix(4.1121577,0,0,4.0888111,522.91168,840.24165)"
         d="m -26.263968,29.716238 a 9.3944187,3.939595 0 1 1 -18.788837,0 9.3944187,3.939595 0 1 1 18.788837,0 z"
         sodipodi:ry="3.939595"
         sodipodi:rx="9.3944187"
         sodipodi:cy="29.716238"
         sodipodi:cx="-35.658386"
         id="path2407"
         style="color:#000000;fill:#adb0aa;fill-opacity:1;fill-rule:evenodd;stroke:#4b4d4a;stroke-width:0.73765635;stroke-linecap:butt;stroke-linejoin:miter;stroke-miterlimit:4;stroke-opacity:1;stroke-dashoffset:0;marker:none;visibility:visible;display:inline;overflow:visible"
         sodipodi:type="arc" />
      <path
         sodipodi:type="arc"
         style="color:#000000;fill:none;stroke:#7b7f7a;stroke-width:0.73765635;stroke-linecap:butt;stroke-linejoin:miter;stroke-miterlimit:4;stroke-opacity:1;stroke-dashoffset:0;marker:none;visibility:visible;display:inline;overflow:visible"
         id="path1825"
         sodipodi:cx="-35.658386"
         sodipodi:cy="29.716238"
         sodipodi:rx="9.3944187"
         sodipodi:ry="3.939595"
         d="m -26.263968,29.716238 a 9.3944187,3.939595 0 1 1 -18.788837,0 9.3944187,3.939595 0 1 1 18.788837,0 z"
         transform="matrix(3.8665509,0,0,3.8445987,514.15369,844.60755)" />
      <path
         transform="matrix(3.8665509,0,0,3.8445987,514.15369,841.54094)"
         d="m -26.263968,29.716238 a 9.3944187,3.939595 0 1 1 -18.788837,0 9.3944187,3.939595 0 1 1 18.788837,0 z"
         sodipodi:ry="3.939595"
         sodipodi:rx="9.3944187"
         sodipodi:cy="29.716238"
         sodipodi:cx="-35.658386"
         id="path2983"
         style="color:#000000;fill:none;stroke:url(#linearGradient4277);stroke-width:0.50208825;stroke-linecap:butt;stroke-linejoin:miter;stroke-miterlimit:4;stroke-opacity:1;stroke-dashoffset:0;marker:none;visibility:visible;display:inline;overflow:visible"
         sodipodi:type="arc" />
      <path
         id="path2411"
         d="m 391.95636,944.76317 -0.25701,4.08881 c 0,0 17.78142,14.71631 37.00942,17.18326 9.614,1.23347 19.54786,2.87203 27.75706,4.85547 8.20921,1.98343 14.75589,4.57785 16.96266,6.77209 1.27645,1.26921 1.85484,2.3455 2.05607,3.19438 0.20125,0.84888 0.15717,1.45077 -0.38551,2.29996 -1.08533,1.69837 -4.44054,3.95654 -10.15189,5.74989 -11.42269,3.58668 -31.7476,5.87767 -59.8833,5.87767 l 0,4.08881 c 28.35743,0 48.78526,-2.15755 61.03984,-6.00545 6.12729,-1.92394 10.38296,-4.15295 12.46498,-7.41097 1.04101,-1.629 1.46936,-3.6327 1.02804,-5.49434 -0.44132,-1.86163 -1.58135,-3.61677 -3.21262,-5.23878 -3.60871,-3.58822 -10.43188,-5.75067 -18.89023,-7.7943 -8.45834,-2.04363 -18.56941,-3.73852 -28.27108,-4.98324 -19.40333,-2.48944 -37.26643,-17.18326 -37.26643,-17.18326 z"
         style="fill:#d0d0d0;fill-opacity:1;fill-rule:evenodd;stroke:#979797;stroke-width:6.04947186;stroke-linecap:butt;stroke-linejoin:round;stroke-miterlimit:4;stroke-opacity:1;stroke-dasharray:none"
         sodipodi:nodetypes="ccccccccccccccccc"
         inkscape:connector-curvature="0" />
      <path
         sodipodi:type="arc"
         style="color:#000000;fill:url(#radialGradient4279);fill-opacity:1;fill-rule:evenodd;stroke:none;stroke-width:1;marker:none;visibility:visible;display:inline;overflow:visible"
         id="path2462"
         sodipodi:cx="24.218407"
         sodipodi:cy="35.051105"
         sodipodi:rx="16.882174"
         sodipodi:ry="4.552"
         d="m 41.10058,35.051105 a 16.882174,4.552 0 1 1 -33.7643469,0 16.882174,4.552 0 1 1 33.7643469,0 z"
         transform="matrix(4.1121577,0,0,5.5973044,278.18919,749.3691)" />
      <rect
         style="color:#000000;fill:url(#linearGradient9113);fill-opacity:1;fill-rule:evenodd;stroke:none;stroke-width:0.60872948;marker:none;visibility:visible;display:inline;overflow:visible"
         id="rect2699"
         width="37.172562"
         height="11.203502"
         x="358.17456"
         y="952.68469" />
      <path
         sodipodi:nodetypes="cssssssss"
         id="rect2404"
         d="m 315.4431,834.07652 121.67132,0 c 3.74758,0 6.67875,2.38575 6.85395,5.73082 l 5.47757,104.58408 c 0.23937,4.57021 -3.70528,8.26064 -8.30781,8.26064 l -129.71874,0 c -4.60253,0 -8.54718,-3.69043 -8.30781,-8.26064 l 5.47757,-104.58408 c 0.16566,-3.16283 2.25142,-5.73082 6.85395,-5.73082 z"
         style="color:#000000;fill:url(#linearGradient9108);fill-opacity:1;fill-rule:evenodd;stroke:url(#linearGradient9110);stroke-width:12.09894371;stroke-linecap:butt;stroke-linejoin:miter;stroke-miterlimit:4;stroke-opacity:1;stroke-dasharray:none;stroke-dashoffset:0;marker:none;visibility:visible;display:inline;overflow:visible"
         inkscape:connector-curvature="0" />
      <path
         style="fill:url(#linearGradient9105);fill-opacity:1;fill-rule:evenodd;stroke:#000079;stroke-width:1.51236796;stroke-linecap:butt;stroke-linejoin:round;stroke-miterlimit:4;stroke-opacity:1;stroke-dasharray:none"
         d="m 320.91076,844.74915 -5.10811,90.13914 113.70276,0 -5.4898,-89.75712 -103.10485,-0.38202 z"
         id="path2377"
         sodipodi:nodetypes="ccccc"
         inkscape:connector-curvature="0" />
      <path
         id="path2393"
         d="m 311.72789,944.63865 129.23885,0"
         style="fill:none;stroke:url(#linearGradient9102);stroke-width:3.01318502;stroke-linecap:round;stroke-linejoin:miter;stroke-miterlimit:4;stroke-opacity:0.24840764"
         inkscape:connector-curvature="0" />
      <path
         style="color:#000000;fill:none;stroke:url(#linearGradient9099);stroke-width:3.02473497;stroke-linecap:butt;stroke-linejoin:miter;stroke-miterlimit:4;stroke-opacity:0.70063692;stroke-dashoffset:0;marker:none;visibility:visible;display:inline;overflow:visible"
         d="m 314.75923,838.20915 122.72941,-0.15456 c 1.16661,-10e-4 2.29994,0.97007 2.39371,2.66813 l 5.60031,101.41579 c 0.23867,4.322 -2.21953,7.30209 -6.57275,7.30209 l -125.51937,0 c -4.35323,0 -6.55073,-2.97989 -6.31575,-7.30209 l 5.44487,-100.15202 c 0.15912,-2.92689 0.6842,-3.77538 2.23957,-3.77734 z"
         id="path2397"
         sodipodi:nodetypes="cssssssss"
         inkscape:connector-curvature="0" />
      <path
         id="path2443"
         d="m 322.14852,846.55042 -3.30013,73.06841 c 45.4173,-9.81573 46.96686,-42.90062 103.43735,-53.75458 l -0.664,-19.04371 -99.47322,-0.27012 z"
         style="opacity:0.53142856;fill:url(#linearGradient9096);fill-opacity:1;fill-rule:evenodd;stroke:none"
         sodipodi:nodetypes="ccccc"
         inkscape:connector-curvature="0" />
      <path
         sodipodi:type="arc"
         style="color:#000000;fill:url(#radialGradient4295);fill-opacity:1;fill-rule:evenodd;stroke:none;stroke-width:1;marker:none;visibility:visible;display:inline;overflow:visible"
         id="path2657"
         sodipodi:cx="24.218407"
         sodipodi:cy="35.051105"
         sodipodi:rx="16.882174"
         sodipodi:ry="4.552"
         d="m 41.10058,35.051105 a 16.882174,4.552 0 1 1 -33.7643469,0 16.882174,4.552 0 1 1 33.7643469,0 z"
         transform="matrix(5.199404,0,0,5.2797264,260.76277,810.78647)" />
      <path
         style="color:#000000;fill:url(#linearGradient9090);fill-opacity:1;fill-rule:evenodd;stroke:url(#linearGradient9092);stroke-width:12.09894371;stroke-linecap:butt;stroke-linejoin:miter;stroke-miterlimit:4;stroke-opacity:1;stroke-dasharray:none;stroke-dashoffset:0;marker:none;visibility:visible;display:inline;overflow:visible"
         d="m 312.89883,977.68305 127.48678,0 c 4.60253,0 4.01904,1.10986 4.49141,2.50581 l 11.65651,34.44744 c 0.47238,1.396 0.11111,2.5058 -4.49141,2.5058 l -150.7998,0 c -4.60253,0 -4.96378,-1.1098 -4.49141,-2.5058 l 11.65651,-34.44744 c 0.47237,-1.39596 -0.11112,-2.50581 4.49141,-2.50581 z"
         id="path2409"
         sodipodi:nodetypes="cssssssss"
         inkscape:connector-curvature="0" />
      <path
         style="fill:#7a7d77;fill-opacity:1;fill-rule:evenodd;stroke:none"
         d="m 312.60894,985.90835 -7.26933,20.96135 22.53494,0 2.1808,-8.31223 61.06243,0 2.26036,8.48473 25.36311,0 -6.90586,-21.13385 -99.22645,0 z"
         id="path2611"
         sodipodi:nodetypes="ccccccccc"
         inkscape:connector-curvature="0" />
      <path
         style="fill:#777874;fill-opacity:1;fill-rule:evenodd;stroke:none"
         d="m 331.87269,1000.0031 -1.81734,6.8666 60.69896,0 -1.81733,-7.22802 -57.06429,0.36142 z"
         id="path2613"
         inkscape:connector-curvature="0" />
      <path
         id="path2619"
         d="m 440.91273,985.90835 6.90587,20.59995 -22.53494,-0.3614 -6.17894,-19.87715 21.80801,-0.36141 z"
         style="color:#000000;fill:#777a75;fill-opacity:1;fill-rule:evenodd;stroke:none;stroke-width:0.25pt;marker:none;visibility:visible;display:inline;overflow:visible"
         inkscape:connector-curvature="0" />
      <path
         style="color:#000000;fill:url(#linearGradient9084);fill-opacity:1;fill-rule:evenodd;stroke:none;stroke-width:0.25pt;marker:none;visibility:visible;display:inline;overflow:visible"
         d="m 440.91273,983.73994 6.90587,20.59996 -22.53494,-0.3614 -6.17894,-19.87716 21.80801,-0.36141 z"
         id="path2615"
         inkscape:connector-curvature="0" />
      <path
         sodipodi:nodetypes="ccccccccc"
         id="path2617"
         d="m 312.60894,983.37854 -7.26933,20.96136 22.53494,0 2.1808,-8.31225 61.06243,0 2.26036,8.48475 25.36311,0 -6.90586,-21.13386 -99.22645,0 z"
         style="fill:url(#linearGradient9081);fill-opacity:1;fill-rule:evenodd;stroke:none"
         inkscape:connector-curvature="0" />
      <path
         id="path2621"
         d="m 331.87269,997.83467 -1.81734,6.86663 60.69896,0 -1.81733,-7.22803 -57.06429,0.36141 z"
         style="color:#000000;fill:url(#linearGradient9078);fill-opacity:1;fill-rule:evenodd;stroke:none;stroke-width:0.25pt;marker:none;visibility:visible;display:inline;overflow:visible"
         inkscape:connector-curvature="0" />
      <path
         sodipodi:nodetypes="ccccc"
         id="path2631"
         d="m 311.52387,980.79326 130.87277,0 10.84449,33.08894 -153.22339,0 11.50613,-33.08894 z"
         style="color:#000000;fill:none;stroke:url(#linearGradient9075);stroke-width:1.51236796;stroke-linecap:butt;stroke-linejoin:round;stroke-miterlimit:4;stroke-opacity:1;stroke-dashoffset:0;marker:none;visibility:visible;display:inline;overflow:visible"
         inkscape:connector-curvature="0" />
      <path
         sodipodi:type="arc"
         style="color:#000000;fill:url(#linearGradient4309);fill-opacity:1;fill-rule:evenodd;stroke:none;stroke-width:0.5;marker:none;visibility:visible;display:inline;overflow:visible"
         id="path2709"
         sodipodi:cx="34.780815"
         sodipodi:cy="3.9384086"
         sodipodi:rx="0.83968931"
         sodipodi:ry="0.83968931"
         d="m 35.620504,3.9384086 a 0.83968931,0.83968931 0 1 1 -1.679378,0 0.83968931,0.83968931 0 1 1 1.679378,0 z"
         transform="matrix(5.4742565,0,0,2.6922736,243.47938,838.81236)" />
      <path
         transform="matrix(5.4742565,0,0,2.6922736,243.94652,847.42252)"
         d="m 35.620504,3.9384086 a 0.83968931,0.83968931 0 1 1 -1.679378,0 0.83968931,0.83968931 0 1 1 1.679378,0 z"
         sodipodi:ry="0.83968931"
         sodipodi:rx="0.83968931"
         sodipodi:cy="3.9384086"
         sodipodi:cx="34.780815"
         id="path2719"
         style="color:#000000;fill:url(#linearGradient4311);fill-opacity:1;fill-rule:evenodd;stroke:none;stroke-width:0.5;marker:none;visibility:visible;display:inline;overflow:visible"
         sodipodi:type="arc" />
      <path
         sodipodi:type="arc"
         style="color:#000000;fill:url(#linearGradient4313);fill-opacity:1;fill-rule:evenodd;stroke:none;stroke-width:0.5;marker:none;visibility:visible;display:inline;overflow:visible"
         id="path2723"
         sodipodi:cx="34.780815"
         sodipodi:cy="3.9384086"
         sodipodi:rx="0.83968931"
         sodipodi:ry="0.83968931"
         d="m 35.620504,3.9384086 a 0.83968931,0.83968931 0 1 1 -1.679378,0 0.83968931,0.83968931 0 1 1 1.679378,0 z"
         transform="matrix(5.4742565,0,0,2.6922736,244.41366,855.60014)" />
      <path
         transform="matrix(5.4742565,0,0,2.6922736,244.88081,863.77776)"
         d="m 35.620504,3.9384086 a 0.83968931,0.83968931 0 1 1 -1.679378,0 0.83968931,0.83968931 0 1 1 1.679378,0 z"
         sodipodi:ry="0.83968931"
         sodipodi:rx="0.83968931"
         sodipodi:cy="3.9384086"
         sodipodi:cx="34.780815"
         id="path2727"
         style="color:#000000;fill:url(#linearGradient4315);fill-opacity:1;fill-rule:evenodd;stroke:none;stroke-width:0.5;marker:none;visibility:visible;display:inline;overflow:visible"
         sodipodi:type="arc" />
      <path
         sodipodi:type="arc"
         style="color:#000000;fill:url(#linearGradient4317);fill-opacity:1;fill-rule:evenodd;stroke:none;stroke-width:0.5;marker:none;visibility:visible;display:inline;overflow:visible"
         id="path2731"
         sodipodi:cx="34.780815"
         sodipodi:cy="3.9384086"
         sodipodi:rx="0.83968931"
         sodipodi:ry="0.83968931"
         d="m 35.620504,3.9384086 a 0.83968931,0.83968931 0 1 1 -1.679378,0 0.83968931,0.83968931 0 1 1 1.679378,0 z"
         transform="matrix(5.4742565,0,0,2.6922736,245.34795,871.95538)" />
      <path
         style="font-size:0.9029026px;font-style:normal;font-variant:normal;font-weight:bold;font-stretch:normal;writing-mode:lr-tb;text-anchor:start;fill:#4a4a4a;fill-opacity:1;stroke:none;font-family:Bitstream Vera Sans"
         d="m 368.56846,938.84022 1.15846,0 c 0.34444,0 0.60854,0.0763 0.79225,0.22893 0.18493,0.15141 0.27737,0.36775 0.27737,0.64895 -10e-6,0.28241 -0.0924,0.49993 -0.27737,0.65255 -0.18369,0.15141 -0.44779,0.22714 -0.79225,0.22714 l -0.46048,0 0,0.93376 -0.69798,0 0,-2.69133 m 0.69798,0.50293 0,0.7517 0.38613,0 c 0.13537,0 0.23991,-0.0323 0.31364,-0.0974 0.0737,-0.0661 0.11057,-0.15922 0.11057,-0.27943 0,-0.12017 -0.037,-0.2127 -0.11057,-0.27759 -0.0737,-0.0649 -0.17827,-0.0974 -0.31364,-0.0974 l -0.38613,0 m 3.25783,-0.0486 c -0.21272,0 -0.3777,0.0781 -0.49493,0.23433 -0.11724,0.15623 -0.17583,0.37617 -0.17583,0.65976 0,0.28242 0.0586,0.50174 0.17583,0.65797 0.11724,0.15623 0.28222,0.23433 0.49493,0.23433 0.21392,0 0.37951,-0.0781 0.49675,-0.23433 0.11724,-0.15624 0.17583,-0.37556 0.17583,-0.65797 0,-0.2836 -0.0586,-0.50353 -0.17583,-0.65976 -0.11724,-0.15624 -0.28284,-0.23433 -0.49675,-0.23433 m 0,-0.50294 c 0.4351,0 0.77593,0.12377 1.0225,0.37135 0.24656,0.24757 0.36984,0.58946 0.36984,1.0257 0,0.43503 -0.12328,0.77633 -0.36984,1.02389 -0.24657,0.24758 -0.5874,0.37135 -1.0225,0.37135 -0.43389,0 -0.77472,-0.12377 -1.02249,-0.37135 -0.24656,-0.24758 -0.36985,-0.58886 -0.36985,-1.02389 0,-0.43624 0.12329,-0.77814 0.36985,-1.0257 0.24776,-0.24758 0.5886,-0.37135 1.02249,-0.37135 m 1.91808,0.0487 0.77956,0 0.98442,1.8459 0,-1.8459 0.66172,0 0,2.69133 -0.77956,0 -0.98442,-1.8459 0,1.8459 -0.66172,0 0,-2.69133 m 2.72665,0 0.76324,0 0.61639,0.959 0.6164,-0.959 0.76506,0 -1.03156,1.55747 0,1.13386 -0.69798,0 0,-1.13386 -1.03155,-1.55747"
         id="text2735"
         inkscape:connector-curvature="0" />
    </g>
    <path
       id="path825"
       sodipodi:rx="172.74803"
       sodipodi:ry="172.74803"
       style="fill:#729fcf;fill-opacity:1;fill-rule:evenodd;stroke:#204a87;stroke-width:27.09701347;stroke-miterlimit:4;stroke-opacity:1;stroke-dasharray:none"
       sodipodi:type="arc"
       d="m 397.32047,453.50235 a 172.74803,172.74803 0 1 1 -345.496068,0 172.74803,172.74803 0 1 1 345.496068,0 z"
       transform="matrix(-0.14803859,0,0,0.1471981,1031.6233,-17.308076)"
       sodipodi:cy="453.50235"
       sodipodi:cx="224.57243" />
    <path
       inkscape:connector-curvature="0"
       id="path846"
       sodipodi:nodetypes="ccczcccczzzcccccccccczzccccczccccccccccc"
       style="fill:#0e7a0c;fill-opacity:0.59375;fill-rule:evenodd;stroke-width:1pt"
       d="m 1002.8905,65.273312 c -3.37081,-0.389475 -3.40426,-6.065247 -0.055,-6.52473 2.1042,1.17716 4.0587,-3.788812 5.1325,-1.806884 -0.889,3.754234 3.9302,2.905275 4.85,0.02057 1.3687,-2.327632 0.6822,2.009496 1.2103,2.932847 1.2235,2.988861 -2.5658,7.168015 -5.3605,4.638641 -2.0025,-1.763559 -3.8342,0.113779 -5.7768,0.73956 z m 7.0531,2.06113 c 0.3345,1.299695 1.0255,1.41785 1.47,0.04814 0.4489,-1.29532 -1.2367,-1.054634 -1.47,-0.04814 z M 984.42316,35.891454 c -2.78455,2.743363 -3.60799,6.703714 -4.53398,10.342856 0.68789,2.567884 2.76299,5.183903 0.37321,7.529917 -1.52804,3.301315 -6.44623,1.22399 -5.22054,-2.133771 -0.062,-3.977421 -0.55189,-8.190272 1.37049,-11.852168 1.05274,-2.328517 3.04598,-5.130952 5.92384,-4.864449 0.75962,0.167601 1.43386,0.575017 2.08698,0.977615 z m 6.15577,9.181448 c -0.19761,-3.191473 3.30784,-2.918407 2.51741,-6.730847 -0.13468,-3.235231 -6.9242,-1.623525 -4.93536,-5.482349 1.85109,-2.884271 1.63016,-4.364699 6.2636,-5.109068 4.63388,-0.948298 9.59122,-2.057196 17.38512,3.658837 7.5874,5.715596 -6.3116,1.182853 -7.9783,3.280306 -2.6767,2.241863 -1.4699,7.148761 -4.59206,8.178453 -2.69829,1.719796 -2.48352,5.275357 -2.93375,8.062044 0.53649,2.283879 7.64381,0.662104 4.32051,3.795375 -3.37912,0.852459 -5.64435,-2.530249 -7.99408,-4.314811 -1.19005,-1.118967 -1.85548,-2.350833 -2.05309,-5.33794 z m 23.39167,-4.692905 c 2.8695,-0.182921 4.049,3.091259 3.7937,5.467029 -1.5624,2.59239 1.8793,5.006671 3.5781,2.342957 1.8352,-3.220796 -1.1575,-7.251163 -3.9566,-8.956957 -1.2367,-1.090958 -3.6793,-0.942168 -3.4152,1.146971 z m -28.31647,27.33954 c 3.60492,-0.05251 7.24372,-0.866467 10.82618,-0.118155 1.39778,1.868586 5.33889,3.172657 5.39179,5.124388 -2.78284,1.934223 -6.39611,0.118155 -9.30169,-0.630157 -2.30748,-0.695797 -5.58583,-0.214426 -6.77808,-2.791938 -0.16812,-0.507621 -0.25526,-1.054633 -0.1382,-1.584138 z" />
    <g
       id="g9181"
       transform="matrix(0.85632441,0.51643828,-0.51643828,0.85632441,597.38164,105.93091)">
      <path
         style="fill:#b3b3b3;fill-opacity:1;stroke:#000000;stroke-width:4;stroke-linecap:round;stroke-linejoin:round;stroke-miterlimit:4;stroke-opacity:1;stroke-dasharray:none;stroke-dashoffset:0;display:inline"
         d="m 96.375349,192.14461 0,54.5653 -52.7507,0 0,-66.7222 0,0 41.6255,0 z"
         id="path9183"
         inkscape:connector-curvature="0"
         sodipodi:nodetypes="cccccc" />
      <path
         style="fill:#292929;fill-opacity:1;stroke:#000000;stroke-width:4;stroke-linecap:round;stroke-linejoin:round;stroke-miterlimit:4;stroke-opacity:1;stroke-dasharray:none;stroke-dashoffset:0;display:inline"
         d="m 94.860049,193.31351 -11.1251,0 0,-12.0631"
         id="path9185"
         inkscape:connector-curvature="0" />
      <path
         inkscape:connector-curvature="0"
         id="path9187"
         d="m 53.440149,202.48131 32.3249,0"
         style="fill:none;stroke:#000000;stroke-width:3;stroke-linecap:butt;stroke-linejoin:miter;stroke-miterlimit:4;stroke-opacity:1;stroke-dasharray:none;display:inline" />
      <path
         style="fill:none;stroke:#000000;stroke-width:3;stroke-linecap:butt;stroke-linejoin:miter;stroke-miterlimit:4;stroke-opacity:1;stroke-dasharray:none;display:inline"
         d="m 53.440149,210.48131 32.3249,0"
         id="path9189"
         inkscape:connector-curvature="0" />
      <path
         inkscape:connector-curvature="0"
         id="path9191"
         d="m 53.440149,218.48131 32.3249,0"
         style="fill:none;stroke:#000000;stroke-width:3;stroke-linecap:butt;stroke-linejoin:miter;stroke-miterlimit:4;stroke-opacity:1;stroke-dasharray:none;display:inline" />
      <path
         style="fill:none;stroke:#000000;stroke-width:3;stroke-linecap:butt;stroke-linejoin:miter;stroke-miterlimit:4;stroke-opacity:1;stroke-dasharray:none;display:inline"
         d="m 53.440149,226.48131 32.3249,0"
         id="path9193"
         inkscape:connector-curvature="0" />
      <path
         inkscape:connector-curvature="0"
         id="path9195"
         d="m 53.440149,234.48131 32.3249,0"
         style="fill:none;stroke:#000000;stroke-width:3;stroke-linecap:butt;stroke-linejoin:miter;stroke-miterlimit:4;stroke-opacity:1;stroke-dasharray:none;display:inline" />
    </g>
    <g
       transform="matrix(0.78641724,-0.34164903,0.34164903,0.78641724,99.008884,23.866511)"
       id="g15177">
      <path
         inkscape:connector-curvature="0"
         id="path15179"
         style="fill:#cccccc;stroke:#000000;stroke-width:3.49885178;stroke-linejoin:bevel;stroke-miterlimit:4;stroke-dasharray:none"
         d="m 330.29356,555.18093 -1.97508,42.40374 14.13521,-1.53257 6.26892,16.28758 c 1.91997,-0.28152 3.35977,-0.89939 5.25191,-2.14999 l -6.20644,-16.24726 11.03923,-7.70232 -28.51054,-31.06147 z"
         sodipodi:nodetypes="ccccccccc" />
      <path
         style="fill:#b6b6b6;fill-opacity:1;stroke:none"
         d="m 331.48919,558.36394 -1.93414,38.27554 12.62278,-1.62875 c -6.6326,-13.16195 -8.43886,-25.02517 -10.68864,-36.64679 z"
         id="path15181"
         inkscape:connector-curvature="0"
         sodipodi:nodetypes="cccc" />
    </g>
    <g
       id="g12584"
       style="fill:#2e3436"
       transform="matrix(0.58830298,0,0,0.59035847,-122.97394,-214.40299)">
      <rect
         transform="matrix(0.70710678,-0.70710678,0.70710678,0.70710678,0,0)"
         y="428.67398"
         x="-113.48497"
         height="52.857143"
         width="8.2142859"
         id="rect12580"
         style="fill:#2e3436;fill-opacity:1;stroke:none" />
      <rect
         style="fill:#2e3436;fill-opacity:1;stroke:none"
         id="rect12582"
         width="8.2142859"
         height="52.857143"
         x="450.99542"
         y="82.949257"
         transform="matrix(0.70710678,0.70710678,-0.70710678,0.70710678,0,0)" />
    </g>
    <rect
       style="fill:#2e3436;fill-opacity:1;stroke:none"
       id="rect12594"
       width="25.532526"
       height="6.7822165"
       x="47.879601"
       y="27.265862" />
    <rect
       y="8.4264717"
       x="89.182137"
       height="25.621735"
       width="25.532526"
       id="rect12596"
       style="fill:#2e3436;fill-opacity:1;stroke:none" />
  </g>
</svg>
