<?xml version="1.0" encoding="UTF-8" standalone="no"?>
<!-- Created with Inkscape (http://www.inkscape.org/) -->

<svg
   xmlns:dc="http://purl.org/dc/elements/1.1/"
   xmlns:cc="http://creativecommons.org/ns#"
   xmlns:rdf="http://www.w3.org/1999/02/22-rdf-syntax-ns#"
   xmlns:svg="http://www.w3.org/2000/svg"
   xmlns="http://www.w3.org/2000/svg"
   xmlns:xlink="http://www.w3.org/1999/xlink"
   xmlns:sodipodi="http://sodipodi.sourceforge.net/DTD/sodipodi-0.dtd"
   xmlns:inkscape="http://www.inkscape.org/namespaces/inkscape"
   width="1052.3622"
   height="744.09448"
   id="svg2"
   version="1.1"
   inkscape:version="0.48.3.1 r9886"
   sodipodi:docname="ch05s02.svg">
  <defs
     id="defs4">
    <linearGradient
       inkscape:collect="always"
       xlink:href="#linearGradient2635"
       id="linearGradient2655"
       gradientUnits="userSpaceOnUse"
       gradientTransform="scale(2.143634,0.466498)"
       x1="13.628710"
       y1="101.28460"
       x2="8.6485014"
       y2="74.098007" />
    <linearGradient
       inkscape:collect="always"
       xlink:href="#linearGradient2623"
       id="linearGradient2653"
       gradientUnits="userSpaceOnUse"
       gradientTransform="scale(1.983556,0.504145)"
       x1="10.728384"
       y1="84.029198"
       x2="10.728384"
       y2="92.570930" />
    <linearGradient
       y2="-1.3221773"
       x2="19.994572"
       y1="30.078255"
       x1="21.356108"
       gradientTransform="matrix(1.027870,0.000000,0.000000,0.822296,1.523986,1.001198)"
       gradientUnits="userSpaceOnUse"
       id="linearGradient2445"
       xlink:href="#linearGradient2379"
       inkscape:collect="always" />
    <linearGradient
       gradientUnits="userSpaceOnUse"
       y2="39.031910"
       x2="27.289009"
       y1="10.842293"
       x1="16.119127"
       gradientTransform="matrix(1.289166,0.000000,0.000000,0.922731,-0.789284,-0.503380)"
       id="linearGradient2334"
       xlink:href="#linearGradient2328"
       inkscape:collect="always" />
    <linearGradient
       gradientUnits="userSpaceOnUse"
       y2="53.734985"
       x2="24.418941"
       y1="9.3235140"
       x1="16.851954"
       gradientTransform="matrix(1.208393,0.000000,0.000000,0.984410,-0.789284,-0.503380)"
       id="linearGradient2313"
       xlink:href="#linearGradient2307"
       inkscape:collect="always" />
    <linearGradient
       id="linearGradient2245">
      <stop
         id="stop2247"
         offset="0.0000000"
         style="stop-color:#dde1d9;stop-opacity:1.0000000;" />
      <stop
         id="stop2249"
         offset="1.0000000"
         style="stop-color:#cacdc6;stop-opacity:1.0000000;" />
    </linearGradient>
    <linearGradient
       id="linearGradient2253">
      <stop
         id="stop2255"
         offset="0.0000000"
         style="stop-color:#8f8f8f;stop-opacity:1.0000000;" />
      <stop
         id="stop2257"
         offset="1.0000000"
         style="stop-color:#494949;stop-opacity:1.0000000;" />
    </linearGradient>
    <linearGradient
       id="linearGradient2307"
       inkscape:collect="always">
      <stop
         id="stop2309"
         offset="0"
         style="stop-color:#5a7aa4;stop-opacity:1;" />
      <stop
         id="stop2311"
         offset="1"
         style="stop-color:#5a7aa4;stop-opacity:0;" />
    </linearGradient>
    <linearGradient
       id="linearGradient2328"
       inkscape:collect="always">
      <stop
         id="stop2330"
         offset="0"
         style="stop-color:#ffffff;stop-opacity:1;" />
      <stop
         id="stop2332"
         offset="1"
         style="stop-color:#ffffff;stop-opacity:0;" />
    </linearGradient>
    <linearGradient
       id="linearGradient2379">
      <stop
         id="stop2381"
         offset="0.0000000"
         style="stop-color:#1a4876;stop-opacity:1.0000000;" />
      <stop
         id="stop2383"
         offset="1.0000000"
         style="stop-color:#3f54a3;stop-opacity:0.0000000;" />
    </linearGradient>
    <linearGradient
       id="linearGradient2623">
      <stop
         style="stop-color:#dfdfde;stop-opacity:1.0000000;"
         offset="0.0000000"
         id="stop2625" />
      <stop
         style="stop-color:#9d9f9a;stop-opacity:1.0000000;"
         offset="1.0000000"
         id="stop2627" />
    </linearGradient>
    <linearGradient
       inkscape:collect="always"
       id="linearGradient2635">
      <stop
         style="stop-color:#f9fff5;stop-opacity:1;"
         offset="0"
         id="stop2637" />
      <stop
         style="stop-color:#f9fff5;stop-opacity:0;"
         offset="1"
         id="stop2639" />
    </linearGradient>
    <linearGradient
       id="linearGradient2667">
      <stop
         style="stop-color:#ffffff;stop-opacity:1.0000000;"
         offset="0.0000000"
         id="stop2669" />
      <stop
         style="stop-color:#fcfcff;stop-opacity:0.0000000;"
         offset="1.0000000"
         id="stop2671" />
    </linearGradient>
    <linearGradient
       id="linearGradient2675">
      <stop
         style="stop-color:#5b5b97;stop-opacity:1.0000000;"
         offset="0.0000000"
         id="stop2677" />
      <stop
         style="stop-color:#1b1b43;stop-opacity:1.0000000;"
         offset="1.0000000"
         id="stop2679" />
    </linearGradient>
    <linearGradient
       id="linearGradient2691">
      <stop
         style="stop-color:#868686;stop-opacity:1.0000000;"
         offset="0.0000000"
         id="stop2693" />
      <stop
         style="stop-color:#e9e9e9;stop-opacity:1.0000000;"
         offset="1.0000000"
         id="stop2695" />
    </linearGradient>
    <linearGradient
       id="linearGradient2701">
      <stop
         style="stop-color:#585956;stop-opacity:1.0000000;"
         offset="0.0000000"
         id="stop2703" />
      <stop
         style="stop-color:#bbbeb8;stop-opacity:1.0000000;"
         offset="1.0000000"
         id="stop2705" />
    </linearGradient>
    <linearGradient
       id="linearGradient2711">
      <stop
         style="stop-color:#909090;stop-opacity:1.0000000;"
         offset="0.0000000"
         id="stop2713" />
      <stop
         style="stop-color:#bebebe;stop-opacity:0.0000000;"
         offset="1.0000000"
         id="stop2715" />
    </linearGradient>
    <linearGradient
       id="linearGradient2752">
      <stop
         style="stop-color:#9d9d9d;stop-opacity:1;"
         offset="0"
         id="stop2754" />
      <stop
         style="stop-color:#b9b9b9;stop-opacity:1.0000000;"
         offset="1.0000000"
         id="stop2756" />
    </linearGradient>
    <inkscape:perspective
       id="perspective112"
       inkscape:persp3d-origin="24 : 16 : 1"
       inkscape:vp_z="48 : 24 : 1"
       inkscape:vp_y="0 : 1000 : 0"
       inkscape:vp_x="0 : 24 : 1"
       sodipodi:type="inkscape:persp3d" />
    <radialGradient
       inkscape:collect="always"
       xlink:href="#linearGradient4264"
       id="radialGradient4270"
       cx="23.201941"
       cy="27.096155"
       fx="23.201941"
       fy="27.096155"
       r="23.555494"
       gradientTransform="matrix(1.000000,0.000000,0.000000,0.651032,0.000000,9.455693)"
       gradientUnits="userSpaceOnUse" />
    <linearGradient
       id="linearGradient4184">
      <stop
         style="stop-color:#838383;stop-opacity:1.0000000;"
         offset="0.0000000"
         id="stop4186" />
      <stop
         style="stop-color:#bbbbbb;stop-opacity:0.0000000;"
         offset="1.0000000"
         id="stop4188" />
    </linearGradient>
    <linearGradient
       id="linearGradient4228">
      <stop
         style="stop-color:#bbbbbb;stop-opacity:1.0000000;"
         offset="0.0000000"
         id="stop4230" />
      <stop
         style="stop-color:#9f9f9f;stop-opacity:1.0000000;"
         offset="1.0000000"
         id="stop4232" />
    </linearGradient>
    <linearGradient
       id="linearGradient4244">
      <stop
         style="stop-color:#e4e4e4;stop-opacity:1.0000000;"
         offset="0.0000000"
         id="stop4246" />
      <stop
         style="stop-color:#d3d3d3;stop-opacity:1.0000000;"
         offset="1.0000000"
         id="stop4248" />
    </linearGradient>
    <linearGradient
       inkscape:collect="always"
       id="linearGradient4264">
      <stop
         style="stop-color:#000000;stop-opacity:1;"
         offset="0"
         id="stop4266" />
      <stop
         style="stop-color:#000000;stop-opacity:0;"
         offset="1"
         id="stop4268" />
    </linearGradient>
    <linearGradient
       id="linearGradient4274">
      <stop
         id="stop4276"
         offset="0.0000000"
         style="stop-color:#ffffff;stop-opacity:0.25490198;" />
      <stop
         id="stop4278"
         offset="1.0000000"
         style="stop-color:#ffffff;stop-opacity:1.0000000;" />
    </linearGradient>
    <linearGradient
       id="linearGradient2555">
      <stop
         style="stop-color:#ffffff;stop-opacity:1;"
         offset="0"
         id="stop2557" />
      <stop
         id="stop2561"
         offset="0.50000000"
         style="stop-color:#e6e6e6;stop-opacity:1.0000000;" />
      <stop
         style="stop-color:#ffffff;stop-opacity:1.0000000;"
         offset="0.75000000"
         id="stop2563" />
      <stop
         id="stop2565"
         offset="0.84166664"
         style="stop-color:#e1e1e1;stop-opacity:1.0000000;" />
      <stop
         style="stop-color:#ffffff;stop-opacity:1.0000000;"
         offset="1.0000000"
         id="stop2559" />
    </linearGradient>
    <linearGradient
       id="linearGradient5048">
      <stop
         id="stop5050"
         offset="0"
         style="stop-color:black;stop-opacity:0;" />
      <stop
         style="stop-color:black;stop-opacity:1;"
         offset="0.5"
         id="stop5056" />
      <stop
         id="stop5052"
         offset="1"
         style="stop-color:black;stop-opacity:0;" />
    </linearGradient>
    <inkscape:perspective
       id="perspective79"
       inkscape:persp3d-origin="24 : 16 : 1"
       inkscape:vp_z="48 : 24 : 1"
       inkscape:vp_y="0 : 1000 : 0"
       inkscape:vp_x="0 : 24 : 1"
       sodipodi:type="inkscape:persp3d" />
    <filter
       x="-.17226"
       y="-.092067"
       color-interpolation-filters="sRGB"
       width="1.3445"
       height="1.1841"
       id="filter3904">
      <feGaussianBlur
         stdDeviation="14.227"
         id="feGaussianBlur3906" />
    </filter>
    <filter
       x="-.17226"
       y="-.092067"
       color-interpolation-filters="sRGB"
       width="1.3445"
       height="1.1841"
       id="filter3900">
      <feGaussianBlur
         stdDeviation="14.227"
         id="feGaussianBlur3902" />
    </filter>
    <radialGradient
       r="307.86"
       gradientTransform="matrix(0.38236,0,0,0.38236,-434.57,-63.952)"
       cx="1497.1"
       cy="532.36"
       gradientUnits="userSpaceOnUse"
       id="radialGradient3825">
      <stop
         offset="0"
         style="stop-color:#686868"
         id="stop4562-4" />
      <stop
         offset="1"
         style="stop-color:#e6e6e6;stop-opacity:0"
         id="stop4564-5" />
    </radialGradient>
    <linearGradient
       id="linearGradient4228-9">
      <stop
         style="stop-color:#bbbbbb;stop-opacity:1.0000000;"
         offset="0.0000000"
         id="stop4230-0" />
      <stop
         style="stop-color:#9f9f9f;stop-opacity:1.0000000;"
         offset="1.0000000"
         id="stop4232-1" />
    </linearGradient>
    <linearGradient
       gradientUnits="userSpaceOnUse"
       x2="0"
       y2="1004.847"
       y1="1053.158"
       id="linearGradient3801"
       xlink:href="#linearGradient3795"
       gradientTransform="translate(0,-2056.7244)" />
    <linearGradient
       id="linearGradient3795">
      <stop
         id="stop3152"
         style="stop-color:#868bd8"
         offset="0" />
      <stop
         id="stop3154"
         style="stop-color:#4a42a4"
         offset="1" />
    </linearGradient>
    <linearGradient
       id="linearGradient4710">
      <stop
         offset="0"
         style="stop-color:#f2f4f1"
         id="stop4712" />
      <stop
         offset="1"
         style="stop-color:#d3d7cf"
         id="stop4714" />
    </linearGradient>
    <linearGradient
       id="linearGradient4728">
      <stop
         offset="0"
         style="stop-color:#eeeeec"
         id="stop4730" />
      <stop
         offset="1"
         style="stop-color:#ffffff"
         id="stop4732" />
    </linearGradient>
    <linearGradient
       id="linearGradient4750">
      <stop
         offset="0"
         style="stop-color:#ffffff;stop-opacity:0"
         id="stop4752" />
      <stop
         offset=".5"
         style="stop-color:#ffffff"
         id="stop4758" />
      <stop
         offset="1"
         style="stop-color:#ffffff;stop-opacity:0"
         id="stop4754" />
    </linearGradient>
    <linearGradient
       inkscape:collect="always"
       x1="26.076"
       y1="26.697"
       x2="30.811"
       gradientUnits="userSpaceOnUse"
       y2="42.007"
       id="linearGradient2265">
      <stop
         offset="0"
         style="stop-color:#ffffff"
         id="stop2261" />
      <stop
         offset="1"
         style="stop-color:#ffffff;stop-opacity:0"
         id="stop2263" />
    </linearGradient>
    <linearGradient
       inkscape:collect="always"
       x1="33.396"
       y1="36.921"
       x2="34.17"
       gradientUnits="userSpaceOnUse"
       y2="38.07"
       id="linearGradient2257">
      <stop
         offset="0"
         style="stop-color:#ffffff"
         id="stop2253" />
      <stop
         offset="1"
         style="stop-color:#ffffff;stop-opacity:0"
         id="stop2255-9" />
    </linearGradient>
    <linearGradient
       inkscape:collect="always"
       x1="25.683"
       y1="12.172"
       x2="25.692"
       gradientUnits="userSpaceOnUse"
       y2="-.20294"
       id="linearGradient2245-6">
      <stop
         offset="0"
         style="stop-color:#ffffff"
         id="stop2241" />
      <stop
         offset="1"
         style="stop-color:#ffffff;stop-opacity:0"
         id="stop2243" />
    </linearGradient>
    <linearGradient
       inkscape:collect="always"
       x1="35.997"
       y1="40.458"
       x2="33.665"
       gradientUnits="userSpaceOnUse"
       y2="37.771"
       id="linearGradient2230">
      <stop
         offset="0"
         style="stop-color:#7c7c7c"
         id="stop2226" />
      <stop
         offset="1"
         style="stop-color:#b8b8b8"
         id="stop2228" />
    </linearGradient>
    <linearGradient
       inkscape:collect="always"
       x1="36.812"
       y1="39.156"
       x2="39.062"
       gradientUnits="userSpaceOnUse"
       y2="42.062"
       id="linearGradient2222">
      <stop
         offset="0"
         style="stop-color:#000000"
         id="stop2218" />
      <stop
         offset="1"
         style="stop-color:#000000;stop-opacity:0"
         id="stop2220" />
    </linearGradient>
    <linearGradient
       inkscape:collect="always"
       x1="22.308"
       y1="18.992"
       gradientTransform="matrix(1.0657,0,0,0.9876,-1.5644,0.074873)"
       x2="35.785"
       gradientUnits="userSpaceOnUse"
       y2="39.498"
       id="linearGradient15224">
      <stop
         offset="0"
         style="stop-color:#f0f0ef"
         id="stop15220" />
      <stop
         offset=".59929"
         style="stop-color:#e8e8e8"
         id="stop2269" />
      <stop
         offset=".82759"
         style="stop-color:#ffffff"
         id="stop2267" />
      <stop
         offset="1"
         style="stop-color:#d8d8d3"
         id="stop15222" />
    </linearGradient>
    <linearGradient
       inkscape:collect="always"
       x1="6.1072"
       y1="10.451"
       x2="33.857"
       gradientUnits="userSpaceOnUse"
       y2="37.88"
       id="linearGradient14490">
      <stop
         offset="0"
         style="stop-color:#c68827"
         id="stop14486" />
      <stop
         offset="1"
         style="stop-color:#89601f"
         id="stop14488" />
    </linearGradient>
    <linearGradient
       id="linearGradient15234">
      <stop
         offset="0"
         style="stop-color:#97978a"
         id="stop15236" />
      <stop
         offset=".5"
         style="stop-color:#c2c2b9"
         id="stop15242" />
      <stop
         offset="1"
         style="stop-color:#7d7d6f"
         id="stop15238" />
    </linearGradient>
    <linearGradient
       inkscape:collect="always"
       xlink:href="#linearGradient2257"
       id="linearGradient4687"
       gradientUnits="userSpaceOnUse"
       x1="33.396"
       y1="36.921"
       x2="34.17"
       y2="38.07"
       gradientTransform="matrix(12.926219,-2.2681126,2.2680798,12.926406,136.55123,417.88465)" />
    <linearGradient
       inkscape:collect="always"
       xlink:href="#linearGradient2245-6"
       id="linearGradient4690"
       gradientUnits="userSpaceOnUse"
       x1="25.683"
       y1="12.172"
       x2="25.692"
       y2="-.20294"
       gradientTransform="matrix(12.926219,-2.2681126,2.2680798,12.926406,136.55123,417.88465)" />
    <linearGradient
       inkscape:collect="always"
       xlink:href="#linearGradient2230"
       id="linearGradient4693"
       gradientUnits="userSpaceOnUse"
       x1="35.997"
       y1="40.458"
       x2="33.665"
       y2="37.771"
       gradientTransform="matrix(12.926219,-2.2681126,2.2680798,12.926406,136.55123,417.88465)" />
    <linearGradient
       inkscape:collect="always"
       xlink:href="#linearGradient2222"
       id="linearGradient4696"
       gradientUnits="userSpaceOnUse"
       x1="36.812"
       y1="39.156"
       x2="39.062"
       y2="42.062"
       gradientTransform="matrix(12.926219,-2.2681126,2.2680798,12.926406,136.55123,417.88465)" />
    <linearGradient
       inkscape:collect="always"
       xlink:href="#linearGradient15234"
       id="linearGradient4699"
       gradientUnits="userSpaceOnUse"
       gradientTransform="matrix(13.191941,0,0,11.600588,54.036751,446.26932)"
       x1="25.405"
       y1="3.818"
       x2="25.464"
       y2="9.3234" />
    <linearGradient
       inkscape:collect="always"
       xlink:href="#linearGradient15234"
       id="linearGradient4702"
       gradientUnits="userSpaceOnUse"
       gradientTransform="matrix(7.0702613,0,0,6.7169315,204.02644,427.54955)"
       x1="25.405"
       y1="3.818"
       x2="25.405"
       y2="6.4811" />
    <linearGradient
       inkscape:collect="always"
       xlink:href="#linearGradient15234"
       id="linearGradient4705"
       gradientUnits="userSpaceOnUse"
       gradientTransform="matrix(13.814005,0,0,13.123877,38.79252,435.19605)"
       x1="25.405"
       y1="3.818"
       x2="25.464"
       y2="9.3234" />
    <linearGradient
       inkscape:collect="always"
       xlink:href="#linearGradient2265"
       id="linearGradient4711"
       gradientUnits="userSpaceOnUse"
       x1="26.076"
       y1="26.697"
       x2="30.811"
       y2="42.007"
       gradientTransform="matrix(13.123698,0,0,13.123877,62.277382,435.19605)" />
    <linearGradient
       inkscape:collect="always"
       xlink:href="#linearGradient15224"
       id="linearGradient4715"
       gradientUnits="userSpaceOnUse"
       gradientTransform="matrix(13.985925,0,0,12.961141,41.746672,436.17867)"
       x1="22.308"
       y1="18.992"
       x2="35.785"
       y2="39.498" />
    <linearGradient
       inkscape:collect="always"
       xlink:href="#linearGradient14490"
       id="linearGradient4718"
       gradientUnits="userSpaceOnUse"
       x1="6.1072"
       y1="10.451"
       x2="33.857"
       y2="37.88"
       gradientTransform="matrix(13.123698,0,0,13.123877,62.277382,435.19605)" />
  </defs>
  <sodipodi:namedview
     id="base"
     pagecolor="#ffffff"
     bordercolor="#666666"
     borderopacity="1.0"
     inkscape:pageopacity="0.0"
     inkscape:pageshadow="2"
     inkscape:zoom="0.35"
     inkscape:cx="633.02527"
     inkscape:cy="-28.912777"
     inkscape:document-units="px"
     inkscape:current-layer="layer1"
     showgrid="false"
     showguides="true"
     inkscape:guide-bbox="true"
     inkscape:window-width="1600"
     inkscape:window-height="1157"
     inkscape:window-x="1600"
     inkscape:window-y="20"
     inkscape:window-maximized="1" />
  <metadata
     id="metadata7">
    <rdf:RDF>
      <cc:Work
         rdf:about="">
        <dc:format>image/svg+xml</dc:format>
        <dc:type
           rdf:resource="http://purl.org/dc/dcmitype/StillImage" />
        <dc:title></dc:title>
      </cc:Work>
    </rdf:RDF>
  </metadata>
  <g
     inkscape:label="base"
     inkscape:groupmode="layer"
     id="layer1"
     transform="translate(0,-308.2677)">
    <rect
       y="310.02078"
       x="-2.5917625"
       height="744.6828"
       width="1058.041"
       id="rect14123"
       style="fill:#babdb6;fill-opacity:1;stroke:#000000;stroke-width:4;stroke-linecap:round;stroke-linejoin:round;stroke-miterlimit:4;stroke-opacity:1;stroke-dasharray:none;stroke-dashoffset:0" />
    <g
       id="g14125"
       style="fill:#2e3436"
       transform="matrix(0.30440542,0,0,0.30546899,-60.676784,207.29777)">
      <rect
         transform="matrix(0.70710678,-0.70710678,0.70710678,0.70710678,0,0)"
         y="428.67398"
         x="-113.48497"
         height="52.857143"
         width="8.2142859"
         id="rect14127"
         style="fill:#2e3436;fill-opacity:1;stroke:none" />
      <rect
         style="fill:#2e3436;fill-opacity:1;stroke:none"
         id="rect14129"
         width="8.2142859"
         height="52.857143"
         x="450.99542"
         y="82.949257"
         transform="matrix(0.70710678,0.70710678,-0.70710678,0.70710678,0,0)" />
    </g>
    <rect
       style="fill:#2e3436;fill-opacity:1;stroke:none"
       id="rect14131"
       width="13.211287"
       height="3.50932"
       x="27.727926"
       y="332.34439" />
    <rect
       y="322.59634"
       x="49.099083"
       height="13.257445"
       width="13.211287"
       id="rect14133"
       style="fill:#2e3436;fill-opacity:1;stroke:none" />
    <rect
       y="390.08459"
       x="10.596379"
       height="560.35687"
       width="1015.1799"
       id="rect14135"
       style="fill:#d3d7cf;fill-opacity:1;stroke:none" />
    <path
       inkscape:connector-curvature="0"
       id="path14141"
       d="m 81.406145,428.01 885.762655,0"
       style="fill:none;stroke:#000000;stroke-width:4.99999952;stroke-linecap:butt;stroke-linejoin:miter;stroke-miterlimit:4;stroke-opacity:1;stroke-dasharray:none" />
    <path
       style="fill:none;stroke:#000000;stroke-width:4.99999952;stroke-linecap:butt;stroke-linejoin:miter;stroke-miterlimit:4;stroke-opacity:1;stroke-dasharray:none"
       d="m 81.406145,468.99901 885.762655,0"
       id="path14143"
       inkscape:connector-curvature="0" />
    <path
       inkscape:connector-curvature="0"
       id="path14145"
       d="m 81.406145,509.98802 885.762655,0"
       style="fill:none;stroke:#000000;stroke-width:4.99999952;stroke-linecap:butt;stroke-linejoin:miter;stroke-miterlimit:4;stroke-opacity:1;stroke-dasharray:none" />
    <path
       inkscape:connector-curvature="0"
       id="path14149"
       d="m 81.406145,606.95505 885.762655,0"
       style="fill:none;stroke:#000000;stroke-width:4.99999952;stroke-linecap:butt;stroke-linejoin:miter;stroke-miterlimit:4;stroke-opacity:1;stroke-dasharray:none" />
    <path
       style="fill:none;stroke:#000000;stroke-width:4.99999952;stroke-linecap:butt;stroke-linejoin:miter;stroke-miterlimit:4;stroke-opacity:1;stroke-dasharray:none"
       d="m 81.406145,647.94406 885.762655,0"
       id="path14151"
       inkscape:connector-curvature="0" />
    <path
       inkscape:connector-curvature="0"
       id="path14153"
       d="m 81.406145,688.93307 885.762655,0"
       style="fill:none;stroke:#000000;stroke-width:4.99999952;stroke-linecap:butt;stroke-linejoin:miter;stroke-miterlimit:4;stroke-opacity:1;stroke-dasharray:none" />
    <path
       style="fill:none;stroke:#000000;stroke-width:4.99999952;stroke-linecap:butt;stroke-linejoin:miter;stroke-miterlimit:4;stroke-opacity:1;stroke-dasharray:none"
       d="m 81.406145,729.92208 885.762655,0"
       id="path14155"
       inkscape:connector-curvature="0" />
    <path
       sodipodi:nodetypes="cc"
       inkscape:connector-curvature="0"
       id="path14157"
       d="m 81.406145,770.91109 729.586995,0"
       style="fill:none;stroke:#000000;stroke-width:4.99999952;stroke-linecap:butt;stroke-linejoin:miter;stroke-miterlimit:4;stroke-opacity:1;stroke-dasharray:none" />
    <path
       style="fill:none;stroke:#000000;stroke-width:4.99999952;stroke-linecap:butt;stroke-linejoin:miter;stroke-miterlimit:4;stroke-opacity:1;stroke-dasharray:none"
       d="m 81.406145,878.88911 885.762655,0"
       id="path14159"
       inkscape:connector-curvature="0" />
    <path
       inkscape:connector-curvature="0"
       id="path14161"
       d="m 81.406145,919.87812 885.762655,0"
       style="fill:none;stroke:#000000;stroke-width:4.99999952;stroke-linecap:butt;stroke-linejoin:miter;stroke-miterlimit:4;stroke-opacity:1;stroke-dasharray:none" />
    <g
       transform="translate(991.71428,-683.1428)"
       id="g3157"
       style="fill:#75507b">
      <rect
         width="48"
         x="0"
         y="-1052.3621"
         rx="1.9450001"
         height="48"
         style="fill:#75507b"
         transform="scale(1,-1)"
         id="rect3159" />
    </g>
    <path
       id="path3163"
       d="m 1006.0022,359.7841 c 0,0 1.9076,0.5538 4.4468,0.8704 1.0283,0.1283 4.9408,0.5765 7.9407,0.5647 0,0 3.6535,0 5.6702,-0.2823 2.1101,-0.2998 3.3056,-0.6823 3.971,-1.4458 0.017,-0.182 0.3211,-0.7754 -0.4991,-1.3476 -2.0971,-1.4629 -4.808,-1.8633 -10.0738,-3.1138 -5.8229,-1.464 -7.5631,-2.8659 -8.4325,-3.8805 -0.8242,-1.0168 0.1548,-3.1285 4.8468,-4.1644 2.3756,-0.5781 11.2235,-0.6842 11.2235,-0.6842 -2.5384,-2.0155 -7.304,-5.6236 -8.2781,-6.3909 -0.8543,-0.6729 -2.231,-1.7057 -2.379,-2.6286 -0.1997,-0.8984 1.2144,-1.331 1.9631,-1.3809 2.4123,-0.1664 5.7064,0.1165 8.6345,0.6988 1.4718,0.2926 1.7302,0.2495 1.7302,0.2495 2.0962,0.1 3.7266,-0.9982 3.6434,-3.3107 -0.017,-2.3457 -2.362,-4.2268 -4.9577,-4.3089 -2.4444,-0.078 -8.4681,0.3494 -8.4681,0.3494 7.0207,1.4473 8.1684,1.8168 8.5346,2.6619 0.2163,0.499 -0.3612,0.9953 -2.2958,0.8983 -2.1062,-0.105 -6.4218,-0.6156 -6.4218,-0.6156 -4.1093,-0.6321 -6.9708,-1.231 -8.2186,0.3994 -0.8151,1.0652 0.1165,2.3623 0.4825,3.1276 1.6304,2.845 4.4497,4.7967 6.2388,6.1722 0.6731,0.5177 2.7284,1.6637 2.7284,1.6637 -6.3885,-1.7467 -11.4794,-0.7652 -14.7069,0.9317 -3.70997,2.1961 -3.0753,5.9019 2.8116,9.3666 3.4771,2.0462 5.2084,3.0293 10.9014,3.7282 3.3277,0.5306 3.8235,0.7477 3.7983,1.0247 -0.036,0.39 -3.9387,0.5377 -5.0115,0.6117 -2.7292,0.1882 -9.7876,0.2354 -9.8229,0.2354 z"
       style="fill:#ffffff;fill-rule:evenodd"
       inkscape:connector-curvature="0" />
    <rect
       style="fill:#d3d7cf;fill-opacity:1;stroke:none"
       id="rect3208"
       width="1015.1799"
       height="49.219601"
       x="10.596379"
       y="967.89185" />
    <rect
       id="rect12368"
       style="fill:url(#linearGradient4718);fill-rule:evenodd;stroke:#714c16;stroke-width:1"
       rx="18.21438"
       ry="18.214628"
       height="538.66949"
       width="512.29669"
       y="494.25348"
       x="120.86549"
       transform="matrix(0.98495242,-0.17282572,0.17282087,0.98495327,0,0)" />
    <rect
       id="rect12413"
       style="fill:url(#linearGradient4715);fill-rule:evenodd;stroke:#888a85;stroke-width:1"
       rx="7.4347072"
       ry="7.4348083"
       height="472.15775"
       width="406.20471"
       y="520.88843"
       x="174.25273"
       transform="matrix(0.98495242,-0.17282572,0.17282087,0.98495327,0,0)" />
    <rect
       id="rect13756"
       style="fill:#5c5c5c;fill-rule:evenodd"
       rx="12.912145"
       ry="12.91232"
       height="52.49551"
       width="157.48438"
       y="435.19601"
       x="298.50394"
       transform="matrix(0.98495242,-0.17282572,0.17282086,0.98495327,0,0)" />
    <rect
       id="rect15244"
       style="fill:none;stroke:url(#linearGradient4711);stroke-width:1"
       rx="0"
       ry="0"
       height="446.74991"
       width="380.77097"
       y="533.18683"
       x="187.17693"
       transform="matrix(0.98495242,-0.17282572,0.17282087,0.98495327,0,0)" />
    <rect
       id="rect15974"
       style="fill:none;stroke:#c68827;stroke-width:1"
       rx="6.283627"
       ry="6.2837124"
       height="513.0517"
       width="486.70547"
       y="506.46918"
       x="133.66112"
       transform="matrix(0.98495242,-0.17282572,0.17282087,0.98495327,0,0)" />
    <rect
       id="rect2208"
       style="opacity:0.10795001;fill:#000000;fill-rule:evenodd;stroke:#000000;stroke-width:1"
       rx="18.21438"
       ry="18.214628"
       height="91.867142"
       width="248.65471"
       y="493.88995"
       x="256.38998"
       transform="matrix(0.98495242,-0.17282572,0.17282087,0.98495327,0,0)" />
    <rect
       id="rect2285"
       style="fill:url(#linearGradient4705);fill-rule:evenodd;stroke:#5c5c5c;stroke-width:1"
       rx="18.21438"
       ry="18.214628"
       height="91.867142"
       width="248.65471"
       y="481.12958"
       x="252.91222"
       transform="matrix(0.98495242,-0.17282572,0.17282087,0.98495327,0,0)" />
    <rect
       id="rect2281"
       style="fill:url(#linearGradient4702);fill-rule:evenodd"
       rx="4.2709761"
       ry="4.2710342"
       height="47.017605"
       width="127.26575"
       y="451.05887"
       x="313.60931"
       transform="matrix(0.98495242,-0.17282572,0.17282086,0.98495327,0,0)" />
    <rect
       id="rect13754"
       style="fill:url(#linearGradient4699);fill-rule:evenodd"
       rx="13.292995"
       ry="13.293176"
       height="81.203995"
       width="237.46019"
       y="486.87128"
       x="258.51605"
       transform="matrix(0.98495242,-0.17282572,0.17282086,0.98495327,0,0)" />
    <path
       inkscape:connector-curvature="0"
       id="path2212"
       sodipodi:nodetypes="cccc"
       style="opacity:0.48864004;color:#000000;fill:url(#linearGradient4696);fill-rule:evenodd"
       d="m 723.12431,797.96963 13.75084,75.02848 -109.97267,18.71019 96.22183,-93.73867 z" />
    <path
       inkscape:connector-curvature="0"
       id="path2210"
       sodipodi:nodetypes="cccc"
       style="color:#000000;fill:url(#linearGradient4693);fill-rule:evenodd;stroke:#868a84;stroke-width:1"
       d="m 620.55709,893.74108 c 23.5319,-1.89055 106.2952,-76.87872 103.52882,-129.93066 -14.70811,34.86574 -59.58582,36.67765 -112.33902,48.05263 0,0 18.18519,73.57085 8.8102,81.87803 z" />
    <path
       inkscape:connector-curvature="0"
       id="rect2232"
       style="opacity:0.31682003;fill:none;stroke:url(#linearGradient4690);stroke-width:1"
       d="m 391.54312,392.71307 c -0.0213,0.0304 0.0781,0.36872 0.0708,0.4033 -0.006,0.0385 -0.40752,0.0315 -0.40072,0.0703 l 6.52073,37.16341 c 0.0145,0.0827 0.42023,0.2687 0.47148,0.333 0.0297,0.0174 0.0295,0.39588 0.071,0.40459 l -45.64247,8.00871 c -0.23267,0.0409 -0.59847,0.0824 -0.81436,0.14289 -0.42769,0.14432 -1.17016,0.46914 -1.54478,0.68811 -1.65182,1.06532 -3.01289,3.18021 -3.25344,5.15046 -0.0492,0.55493 0.25356,1.44517 0.3545,2.02039 l 9.42659,53.72473 c 0.0403,0.23008 0.0767,0.5888 0.14175,0.8079 0.14179,0.42815 0.45767,1.16552 0.68423,1.54549 0.16849,0.27689 0.39733,0.89763 0.61323,1.14089 0.0802,0.0778 0.39209,0.26032 0.4717,0.33428 0.32884,0.27941 1.05725,0.78584 1.42759,0.99801 0.19049,0.0985 0.67217,0.18585 0.88533,0.2617 0.1989,0.0704 0.66379,0.21398 0.87242,0.26398 0.42657,0.077 1.23526,0.12968 1.68655,0.11978 0.2236,-0.0166 0.58167,-0.10206 0.81434,-0.14289 l 208.42237,-36.57106 c 0.23267,-0.0409 0.59846,-0.0824 0.81434,-0.14289 0.4277,-0.14433 1.17016,-0.46915 1.54502,-0.68683 0.17915,-0.11803 0.56739,-0.41134 0.73044,-0.54521 0.17461,-0.1439 0.59777,-0.39003 0.74336,-0.54749 0.27597,-0.32557 0.78847,-1.04974 1.00254,-1.42441 0.0497,-0.0967 0.28073,-0.37437 0.32972,-0.4749 0.12018,-0.30224 0.12402,-0.9638 0.1882,-1.28152 0.0837,-0.4344 0.12968,-1.23527 0.1172,-1.68611 -0.0134,-0.22815 -0.10139,-0.57782 -0.14176,-0.8079 l -9.42664,-53.72469 c -0.10092,-0.57523 -0.11932,-1.51536 -0.35449,-2.0204 -0.89695,-1.77065 -2.8967,-3.29583 -4.81253,-3.73515 -0.42679,-0.0784 -1.23548,-0.13098 -1.68677,-0.12109 -0.22359,0.0166 -0.58167,0.10207 -0.81434,0.14289 l -45.64248,8.00871 c 0.0361,-0.0223 -0.093,-0.37809 -0.071,-0.40459 0.0263,-0.0778 0.34447,-0.39089 0.32995,-0.47363 l -6.52074,-37.16341 c -0.007,-0.0387 -0.38142,0.10428 -0.40071,0.0703 -0.0186,-0.03 -0.0404,-0.38198 -0.0707,-0.40329 -0.0415,-0.009 -0.36056,0.0713 -0.40072,0.0703 l -116.33597,20.41301 c -0.0374,0.0147 -0.36465,0.048 -0.40071,0.0703 z" />
    <path
       inkscape:connector-curvature="0"
       id="path2247"
       sodipodi:nodetypes="cccc"
       style="opacity:0.36932002;color:#000000;fill:none;stroke:url(#linearGradient4687);stroke-width:1"
       d="m 636.13773,872.35308 c 16.14462,-11.9467 52.64357,-43.89386 65.16847,-71.15471 -22.31098,8.92479 -37.32415,14.4105 -72.45214,21.97333 0,0 7.94311,38.73928 7.28367,49.18138 z" />
    <rect
       id="rect2271"
       style="opacity:0.17045001;color:#000000;fill:#000000;fill-rule:evenodd"
       height="26.247755"
       width="275.59766"
       y="632.05426"
       x="246.00916"
       transform="matrix(0.98495242,-0.17282572,0.17282086,0.98495327,0,0)" />
    <rect
       id="rect2273"
       style="opacity:0.17045001;color:#000000;fill:#000000;fill-rule:evenodd"
       height="26.247755"
       width="262.47397"
       y="684.54974"
       x="246.00916"
       transform="matrix(0.98495242,-0.17282572,0.17282086,0.98495327,0,0)" />
    <rect
       id="rect2275"
       style="opacity:0.17045001;color:#000000;fill:#000000;fill-rule:evenodd"
       height="26.247755"
       width="236.22658"
       y="737.04529"
       x="246.00916"
       transform="matrix(0.98495242,-0.17282572,0.17282086,0.98495327,0,0)" />
    <rect
       id="rect2277"
       style="opacity:0.17045001;color:#000000;fill:#000000;fill-rule:evenodd"
       height="26.247755"
       width="275.59766"
       y="789.54077"
       x="246.00916"
       transform="matrix(0.98495242,-0.17282572,0.17282086,0.98495327,0,0)" />
    <rect
       id="rect2279"
       style="opacity:0.17045001;color:#000000;fill:#000000;fill-rule:evenodd"
       height="26.247755"
       width="170.60808"
       y="842.03632"
       x="246.00916"
       transform="matrix(0.98495242,-0.17282572,0.17282086,0.98495327,0,0)" />
  </g>
  <g
     inkscape:groupmode="layer"
     id="layer2"
     inkscape:label="Layer"
     sodipodi:insensitive="true" />
</svg>
