<?xml version="1.0" encoding="UTF-8" standalone="no"?>
<!-- Created with Inkscape (http://www.inkscape.org/) -->

<svg
   xmlns:dc="http://purl.org/dc/elements/1.1/"
   xmlns:cc="http://creativecommons.org/ns#"
   xmlns:rdf="http://www.w3.org/1999/02/22-rdf-syntax-ns#"
   xmlns:svg="http://www.w3.org/2000/svg"
   xmlns="http://www.w3.org/2000/svg"
   xmlns:xlink="http://www.w3.org/1999/xlink"
   xmlns:sodipodi="http://sodipodi.sourceforge.net/DTD/sodipodi-0.dtd"
   xmlns:inkscape="http://www.inkscape.org/namespaces/inkscape"
   width="1052.3622"
   height="744.09448"
   id="svg2"
   version="1.1"
   inkscape:version="0.48.3.1 r9886"
   sodipodi:docname="ch01s05.svg">
  <defs
     id="defs4">
    <linearGradient
       inkscape:collect="always"
       xlink:href="#linearGradient2635"
       id="linearGradient2655"
       gradientUnits="userSpaceOnUse"
       gradientTransform="scale(2.143634,0.466498)"
       x1="13.628710"
       y1="101.28460"
       x2="8.6485014"
       y2="74.098007" />
    <linearGradient
       inkscape:collect="always"
       xlink:href="#linearGradient2623"
       id="linearGradient2653"
       gradientUnits="userSpaceOnUse"
       gradientTransform="scale(1.983556,0.504145)"
       x1="10.728384"
       y1="84.029198"
       x2="10.728384"
       y2="92.570930" />
    <linearGradient
       y2="-1.3221773"
       x2="19.994572"
       y1="30.078255"
       x1="21.356108"
       gradientTransform="matrix(1.027870,0.000000,0.000000,0.822296,1.523986,1.001198)"
       gradientUnits="userSpaceOnUse"
       id="linearGradient2445"
       xlink:href="#linearGradient2379"
       inkscape:collect="always" />
    <linearGradient
       gradientUnits="userSpaceOnUse"
       y2="39.031910"
       x2="27.289009"
       y1="10.842293"
       x1="16.119127"
       gradientTransform="matrix(1.289166,0.000000,0.000000,0.922731,-0.789284,-0.503380)"
       id="linearGradient2334"
       xlink:href="#linearGradient2328"
       inkscape:collect="always" />
    <linearGradient
       gradientUnits="userSpaceOnUse"
       y2="53.734985"
       x2="24.418941"
       y1="9.3235140"
       x1="16.851954"
       gradientTransform="matrix(1.208393,0.000000,0.000000,0.984410,-0.789284,-0.503380)"
       id="linearGradient2313"
       xlink:href="#linearGradient2307"
       inkscape:collect="always" />
    <linearGradient
       id="linearGradient2245">
      <stop
         id="stop2247"
         offset="0.0000000"
         style="stop-color:#dde1d9;stop-opacity:1.0000000;" />
      <stop
         id="stop2249"
         offset="1.0000000"
         style="stop-color:#cacdc6;stop-opacity:1.0000000;" />
    </linearGradient>
    <linearGradient
       id="linearGradient2253">
      <stop
         id="stop2255"
         offset="0.0000000"
         style="stop-color:#8f8f8f;stop-opacity:1.0000000;" />
      <stop
         id="stop2257"
         offset="1.0000000"
         style="stop-color:#494949;stop-opacity:1.0000000;" />
    </linearGradient>
    <linearGradient
       id="linearGradient2307"
       inkscape:collect="always">
      <stop
         id="stop2309"
         offset="0"
         style="stop-color:#5a7aa4;stop-opacity:1;" />
      <stop
         id="stop2311"
         offset="1"
         style="stop-color:#5a7aa4;stop-opacity:0;" />
    </linearGradient>
    <linearGradient
       id="linearGradient2328"
       inkscape:collect="always">
      <stop
         id="stop2330"
         offset="0"
         style="stop-color:#ffffff;stop-opacity:1;" />
      <stop
         id="stop2332"
         offset="1"
         style="stop-color:#ffffff;stop-opacity:0;" />
    </linearGradient>
    <linearGradient
       id="linearGradient2379">
      <stop
         id="stop2381"
         offset="0.0000000"
         style="stop-color:#1a4876;stop-opacity:1.0000000;" />
      <stop
         id="stop2383"
         offset="1.0000000"
         style="stop-color:#3f54a3;stop-opacity:0.0000000;" />
    </linearGradient>
    <linearGradient
       id="linearGradient2623">
      <stop
         style="stop-color:#dfdfde;stop-opacity:1.0000000;"
         offset="0.0000000"
         id="stop2625" />
      <stop
         style="stop-color:#9d9f9a;stop-opacity:1.0000000;"
         offset="1.0000000"
         id="stop2627" />
    </linearGradient>
    <linearGradient
       inkscape:collect="always"
       id="linearGradient2635">
      <stop
         style="stop-color:#f9fff5;stop-opacity:1;"
         offset="0"
         id="stop2637" />
      <stop
         style="stop-color:#f9fff5;stop-opacity:0;"
         offset="1"
         id="stop2639" />
    </linearGradient>
    <linearGradient
       id="linearGradient2667">
      <stop
         style="stop-color:#ffffff;stop-opacity:1.0000000;"
         offset="0.0000000"
         id="stop2669" />
      <stop
         style="stop-color:#fcfcff;stop-opacity:0.0000000;"
         offset="1.0000000"
         id="stop2671" />
    </linearGradient>
    <linearGradient
       id="linearGradient2675">
      <stop
         style="stop-color:#5b5b97;stop-opacity:1.0000000;"
         offset="0.0000000"
         id="stop2677" />
      <stop
         style="stop-color:#1b1b43;stop-opacity:1.0000000;"
         offset="1.0000000"
         id="stop2679" />
    </linearGradient>
    <linearGradient
       id="linearGradient2691">
      <stop
         style="stop-color:#868686;stop-opacity:1.0000000;"
         offset="0.0000000"
         id="stop2693" />
      <stop
         style="stop-color:#e9e9e9;stop-opacity:1.0000000;"
         offset="1.0000000"
         id="stop2695" />
    </linearGradient>
    <linearGradient
       id="linearGradient2701">
      <stop
         style="stop-color:#585956;stop-opacity:1.0000000;"
         offset="0.0000000"
         id="stop2703" />
      <stop
         style="stop-color:#bbbeb8;stop-opacity:1.0000000;"
         offset="1.0000000"
         id="stop2705" />
    </linearGradient>
    <linearGradient
       id="linearGradient2711">
      <stop
         style="stop-color:#909090;stop-opacity:1.0000000;"
         offset="0.0000000"
         id="stop2713" />
      <stop
         style="stop-color:#bebebe;stop-opacity:0.0000000;"
         offset="1.0000000"
         id="stop2715" />
    </linearGradient>
    <linearGradient
       id="linearGradient2752">
      <stop
         style="stop-color:#9d9d9d;stop-opacity:1;"
         offset="0"
         id="stop2754" />
      <stop
         style="stop-color:#b9b9b9;stop-opacity:1.0000000;"
         offset="1.0000000"
         id="stop2756" />
    </linearGradient>
    <inkscape:perspective
       id="perspective112"
       inkscape:persp3d-origin="24 : 16 : 1"
       inkscape:vp_z="48 : 24 : 1"
       inkscape:vp_y="0 : 1000 : 0"
       inkscape:vp_x="0 : 24 : 1"
       sodipodi:type="inkscape:persp3d" />
    <radialGradient
       inkscape:collect="always"
       xlink:href="#linearGradient4264"
       id="radialGradient4270"
       cx="23.201941"
       cy="27.096155"
       fx="23.201941"
       fy="27.096155"
       r="23.555494"
       gradientTransform="matrix(1.000000,0.000000,0.000000,0.651032,0.000000,9.455693)"
       gradientUnits="userSpaceOnUse" />
    <linearGradient
       id="linearGradient4184">
      <stop
         style="stop-color:#838383;stop-opacity:1.0000000;"
         offset="0.0000000"
         id="stop4186" />
      <stop
         style="stop-color:#bbbbbb;stop-opacity:0.0000000;"
         offset="1.0000000"
         id="stop4188" />
    </linearGradient>
    <linearGradient
       id="linearGradient4228">
      <stop
         style="stop-color:#bbbbbb;stop-opacity:1.0000000;"
         offset="0.0000000"
         id="stop4230" />
      <stop
         style="stop-color:#9f9f9f;stop-opacity:1.0000000;"
         offset="1.0000000"
         id="stop4232" />
    </linearGradient>
    <linearGradient
       id="linearGradient4244">
      <stop
         style="stop-color:#e4e4e4;stop-opacity:1.0000000;"
         offset="0.0000000"
         id="stop4246" />
      <stop
         style="stop-color:#d3d3d3;stop-opacity:1.0000000;"
         offset="1.0000000"
         id="stop4248" />
    </linearGradient>
    <linearGradient
       inkscape:collect="always"
       id="linearGradient4264">
      <stop
         style="stop-color:#000000;stop-opacity:1;"
         offset="0"
         id="stop4266" />
      <stop
         style="stop-color:#000000;stop-opacity:0;"
         offset="1"
         id="stop4268" />
    </linearGradient>
    <linearGradient
       id="linearGradient4274">
      <stop
         id="stop4276"
         offset="0.0000000"
         style="stop-color:#ffffff;stop-opacity:0.25490198;" />
      <stop
         id="stop4278"
         offset="1.0000000"
         style="stop-color:#ffffff;stop-opacity:1.0000000;" />
    </linearGradient>
    <linearGradient
       id="linearGradient2555">
      <stop
         style="stop-color:#ffffff;stop-opacity:1;"
         offset="0"
         id="stop2557" />
      <stop
         id="stop2561"
         offset="0.50000000"
         style="stop-color:#e6e6e6;stop-opacity:1.0000000;" />
      <stop
         style="stop-color:#ffffff;stop-opacity:1.0000000;"
         offset="0.75000000"
         id="stop2563" />
      <stop
         id="stop2565"
         offset="0.84166664"
         style="stop-color:#e1e1e1;stop-opacity:1.0000000;" />
      <stop
         style="stop-color:#ffffff;stop-opacity:1.0000000;"
         offset="1.0000000"
         id="stop2559" />
    </linearGradient>
    <linearGradient
       id="linearGradient5048">
      <stop
         id="stop5050"
         offset="0"
         style="stop-color:black;stop-opacity:0;" />
      <stop
         style="stop-color:black;stop-opacity:1;"
         offset="0.5"
         id="stop5056" />
      <stop
         id="stop5052"
         offset="1"
         style="stop-color:black;stop-opacity:0;" />
    </linearGradient>
    <inkscape:perspective
       id="perspective79"
       inkscape:persp3d-origin="24 : 16 : 1"
       inkscape:vp_z="48 : 24 : 1"
       inkscape:vp_y="0 : 1000 : 0"
       inkscape:vp_x="0 : 24 : 1"
       sodipodi:type="inkscape:persp3d" />
    <filter
       x="-.17226"
       y="-.092067"
       color-interpolation-filters="sRGB"
       width="1.3445"
       height="1.1841"
       id="filter3904">
      <feGaussianBlur
         stdDeviation="14.227"
         id="feGaussianBlur3906" />
    </filter>
    <filter
       x="-.17226"
       y="-.092067"
       color-interpolation-filters="sRGB"
       width="1.3445"
       height="1.1841"
       id="filter3900">
      <feGaussianBlur
         stdDeviation="14.227"
         id="feGaussianBlur3902" />
    </filter>
    <radialGradient
       r="307.86"
       gradientTransform="matrix(0.38236,0,0,0.38236,-434.57,-63.952)"
       cx="1497.1"
       cy="532.36"
       gradientUnits="userSpaceOnUse"
       id="radialGradient3825">
      <stop
         offset="0"
         style="stop-color:#686868"
         id="stop4562-4" />
      <stop
         offset="1"
         style="stop-color:#e6e6e6;stop-opacity:0"
         id="stop4564-5" />
    </radialGradient>
    <linearGradient
       inkscape:collect="always"
       xlink:href="#linearGradient4228-9"
       id="linearGradient7408-5"
       gradientUnits="userSpaceOnUse"
       gradientTransform="matrix(1.678911,0,0,1.678911,25.305336,95.516164)"
       x1="7.6046205"
       y1="28.481176"
       x2="36.183067"
       y2="40.943935" />
    <linearGradient
       id="linearGradient4228-9">
      <stop
         style="stop-color:#bbbbbb;stop-opacity:1.0000000;"
         offset="0.0000000"
         id="stop4230-0" />
      <stop
         style="stop-color:#9f9f9f;stop-opacity:1.0000000;"
         offset="1.0000000"
         id="stop4232-1" />
    </linearGradient>
    <linearGradient
       inkscape:collect="always"
       xlink:href="#linearGradient4254-5"
       id="linearGradient7403-4"
       gradientUnits="userSpaceOnUse"
       gradientTransform="matrix(1.678911,0,0,1.678911,25.305336,95.516164)"
       x1="12.378357"
       y1="4.433136"
       x2="44.0961"
       y2="47.620636" />
    <linearGradient
       inkscape:collect="always"
       id="linearGradient4254-5">
      <stop
         style="stop-color:#ffffff;stop-opacity:1;"
         offset="0"
         id="stop4256-2" />
      <stop
         style="stop-color:#ffffff;stop-opacity:0;"
         offset="1"
         id="stop4258-1" />
    </linearGradient>
  </defs>
  <sodipodi:namedview
     id="base"
     pagecolor="#ffffff"
     bordercolor="#666666"
     borderopacity="1.0"
     inkscape:pageopacity="0.0"
     inkscape:pageshadow="2"
     inkscape:zoom="0.7"
     inkscape:cx="547.5618"
     inkscape:cy="579.71345"
     inkscape:document-units="px"
     inkscape:current-layer="layer2"
     showgrid="false"
     showguides="true"
     inkscape:guide-bbox="true"
     inkscape:window-width="1600"
     inkscape:window-height="1157"
     inkscape:window-x="1600"
     inkscape:window-y="20"
     inkscape:window-maximized="1" />
  <metadata
     id="metadata7">
    <rdf:RDF>
      <cc:Work
         rdf:about="">
        <dc:format>image/svg+xml</dc:format>
        <dc:type
           rdf:resource="http://purl.org/dc/dcmitype/StillImage" />
        <dc:title></dc:title>
      </cc:Work>
    </rdf:RDF>
  </metadata>
  <g
     inkscape:label="base"
     inkscape:groupmode="layer"
     id="layer1"
     transform="translate(0,-308.2677)"
     sodipodi:insensitive="true">
    <rect
       style="fill:#3465a4;fill-opacity:1;stroke:none"
       id="rect2998"
       width="1054.5992"
       height="747.51288"
       x="-1.0101526"
       y="-1.3980961"
       transform="translate(0,308.2677)" />
    <g
       transform="translate(0.72504154,242.68781)"
       id="g7411-4">
      <path
         style="fill:none;stroke:#000000;stroke-width:5;stroke-linecap:round;stroke-linejoin:round;stroke-miterlimit:4;stroke-opacity:1;stroke-dasharray:none"
         d="m 44.253004,108.88471 c -1.049319,0 -1.731375,0.48718 -2.151101,1.41658 -10e-7,0 -10.860456,28.71535 -10.860456,28.71535 0,0 -0.419728,1.12749 -0.419728,2.99057 0,0 0,16.20143 0,16.20143 0,1.81761 1.104364,2.72824 2.780696,2.72823 l 64.743007,0 c 1.653473,0 2.675758,-1.20576 2.675758,-3.09549 l 0,-16.20144 c 0,0 0.1779,-1.29347 -0.15739,-2.20357 L 89.583601,110.56363 c -0.3098,-0.85945 -1.069307,-1.65893 -1.888774,-1.67892 l -43.441823,0 z"
         id="path4196-0"
         sodipodi:nodetypes="cccsccccccccc"
         inkscape:connector-curvature="0" />
      <path
         style="fill:url(#linearGradient7408-5);fill-opacity:1;fill-rule:evenodd;stroke:none"
         d="m 30.801404,140.84141 1.283699,-1.16217 63.143324,0.10493 5.813073,0.53272 0,17.52536 c 0,1.88973 -1.01913,3.09479 -2.672611,3.09479 l -64.777403,0 c -1.676334,0 -2.790082,-0.91005 -2.790082,-2.72766 l 0,-17.36797 z"
         id="path4170-8"
         sodipodi:nodetypes="ccccccccc"
         inkscape:connector-curvature="0" />
      <path
         style="fill:#9c9c9c;fill-opacity:1;fill-rule:evenodd;stroke:none"
         d="m 31.263932,139.02414 c -1.199222,2.45841 -0.001,4.01739 1.738872,4.01739 0,0 65.477527,0 65.477527,0 1.878779,-0.04 3.097989,-1.69889 2.398449,-3.59766 L 89.606086,110.54864 c -0.3098,-0.85945 -1.099287,-1.65893 -1.918756,-1.67892 l -43.411839,0 c -1.04932,0 -1.738873,0.50967 -2.158599,1.43907 0,0 -10.85296,28.71535 -10.85296,28.71535 z"
         id="path3093-5"
         sodipodi:nodetypes="csccccccs"
         inkscape:connector-curvature="0" />
      <path
         style="fill:#ffffff;fill-opacity:1;fill-rule:evenodd;stroke:none"
         d="m 100.5141,138.54445 c 0.10665,2.09859 -0.695069,3.88809 -2.219713,3.93495 0,0 -63.997929,0 -63.997929,0 -2.164506,0 -3.135763,-0.54556 -3.498936,-1.45739 0.154058,1.58545 1.386474,2.76903 3.498936,2.76903 0,0 63.997929,0 63.997929,0 1.806523,-0.0555 2.942803,-2.39081 2.270163,-5.02798 l -0.0504,-0.21861 z"
         id="path4201-1"
         sodipodi:nodetypes="cccccccc"
         inkscape:connector-curvature="0" />
      <path
         sodipodi:nodetypes="cccsccccccccc"
         id="path4252-2"
         d="m 44.852082,109.64542 c -1.010187,0 -1.666807,0.46901 -2.070879,1.36376 -2e-6,0 -10.770239,27.85434 -10.770239,27.85434 0,0 -0.404076,1.08544 -0.404076,2.87903 0,0 0,15.59724 0,15.59724 0,2.27449 0.745531,2.73143 2.676997,2.73143 l 63.272956,0 c 2.22141,0 2.575989,-0.53121 2.575989,-3.08499 l 0,-15.59725 c 0,0 0.17126,-1.24523 -0.151525,-2.12139 L 88.911913,111.05186 c -0.298247,-0.8274 -0.924496,-1.3872 -1.713404,-1.40644 l -42.346427,0 z"
         style="fill:none;stroke:url(#linearGradient7403-4);stroke-width:1.00000024;stroke-linecap:round;stroke-linejoin:round;stroke-miterlimit:4;stroke-opacity:1;stroke-dasharray:none"
         inkscape:connector-curvature="0" />
      <path
         id="path4282-1"
         d="m 93.301231,148.28294 0,8.4297"
         style="fill:none;stroke:#ffffff;stroke-width:1.00000048px;stroke-linecap:square;stroke-linejoin:miter;stroke-opacity:0.42372885"
         inkscape:connector-curvature="0" />
      <path
         style="fill:none;stroke:#ffffff;stroke-width:1.00000048px;stroke-linecap:square;stroke-linejoin:miter;stroke-opacity:0.42372885"
         d="m 89.943409,148.3833 0,8.4297"
         id="path4284-0"
         inkscape:connector-curvature="0" />
      <path
         id="path4286-5"
         d="m 86.585587,148.3833 0,8.4297"
         style="fill:none;stroke:#ffffff;stroke-width:1.00000048px;stroke-linecap:square;stroke-linejoin:miter;stroke-opacity:0.42372885"
         inkscape:connector-curvature="0" />
      <path
         style="fill:none;stroke:#ffffff;stroke-width:1.00000048px;stroke-linecap:square;stroke-linejoin:miter;stroke-opacity:0.42372885"
         d="m 83.227765,148.3833 0,8.4297"
         id="path4288-6"
         inkscape:connector-curvature="0" />
      <path
         id="path4290-4"
         d="m 79.869943,148.3833 0,8.4297"
         style="fill:none;stroke:#ffffff;stroke-width:1.00000048px;stroke-linecap:square;stroke-linejoin:miter;stroke-opacity:0.42372885"
         inkscape:connector-curvature="0" />
      <path
         style="fill:none;stroke:#ffffff;stroke-width:1.00000048px;stroke-linecap:square;stroke-linejoin:miter;stroke-opacity:0.42372885"
         d="m 76.512121,148.3833 0,8.4297"
         id="path4292-1"
         inkscape:connector-curvature="0" />
      <path
         style="opacity:0.09714284;fill:none;stroke:#000000;stroke-width:1.00000048px;stroke-linecap:square;stroke-linejoin:miter;stroke-opacity:1"
         d="m 91.62232,148.36671 0,8.42971"
         id="path4294-2"
         inkscape:connector-curvature="0" />
      <path
         id="path4296-8"
         d="m 88.264498,148.46707 0,8.42971"
         style="opacity:0.09714284;fill:none;stroke:#000000;stroke-width:1.00000048px;stroke-linecap:square;stroke-linejoin:miter;stroke-opacity:1"
         inkscape:connector-curvature="0" />
      <path
         style="opacity:0.09714284;fill:none;stroke:#000000;stroke-width:1.00000048px;stroke-linecap:square;stroke-linejoin:miter;stroke-opacity:1"
         d="m 84.906676,148.46707 0,8.42971"
         id="path4298-6"
         inkscape:connector-curvature="0" />
      <path
         id="path4300-6"
         d="m 81.548854,148.46707 0,8.42971"
         style="opacity:0.09714284;fill:none;stroke:#000000;stroke-width:1.00000048px;stroke-linecap:square;stroke-linejoin:miter;stroke-opacity:1"
         inkscape:connector-curvature="0" />
      <path
         style="opacity:0.09714284;fill:none;stroke:#000000;stroke-width:1.00000048px;stroke-linecap:square;stroke-linejoin:miter;stroke-opacity:1"
         d="m 78.191032,148.46707 0,8.42971"
         id="path4302-6"
         inkscape:connector-curvature="0" />
    </g>
    <path
       inkscape:r_cx="true"
       sodipodi:nodetypes="ccccccc"
       d="m 937.89465,965.53743 c -0.0834,-0.0671 3.27374,48.35187 3.27469,48.36717 0.3149,4.8345 2.95846,6.6018 5.9175,6.6095 0.10584,0 55.51186,-0.01 56.69326,-0.012 4.9824,-0.021 6.2034,-3.0977 6.5323,-6.4599 0.027,-0.067 3.3815,-48.43818 3.408,-48.50527 h -75.82537 z"
       inkscape:r_cy="true"
       style="fill:#5c86ad;fill-opacity:1;fill-rule:evenodd;stroke:#000000;stroke-width:3;stroke-miterlimit:4;stroke-opacity:1;stroke-dasharray:none"
       id="path1751-2"
       inkscape:connector-curvature="0" />
    <g
       inkscape:r_cx="true"
       inkscape:r_cy="true"
       transform="matrix(2.6581067,0,0,2.7276777,805.12428,918.8531)"
       style="fill:#ffffff;fill-opacity:0.4881"
       id="g144-7">
      <path
         d="m 64.131,25.325 3.797,0.29 1.468,-3.574 -1.737,1.221 c 0,0 -0.745,-1.738 -1.28,-1.878 -0.536,-0.139 -2.82,-0.093 -2.82,-0.093 0.727,0.18 1.291,1.429 1.3,1.443 0.227,0.37 0.861,1.614 0.861,1.614 l -1.589,0.977 z"
         sodipodi:nodetypes="ccccccscc"
         inkscape:r_cx="true"
         inkscape:r_cy="true"
         style="fill-rule:evenodd"
         id="path41-8"
         inkscape:connector-curvature="0" />
      <path
         d="M 64.601,22.853 63.344,25.25 60.76,23.621 c 0,0 1.172,-2.211 2.095,-2.211 0.931,0 1.347,0.802 1.746,1.443 z"
         sodipodi:nodetypes="ccczc"
         inkscape:r_cx="true"
         inkscape:r_cy="true"
         style="color:#000000;fill-opacity:0.30952005;fill-rule:evenodd"
         id="path130-8"
         inkscape:connector-curvature="0" />
      <path
         d="m 66.451,28.546 -2.448,2.925 2.336,3.017 0.043,-1.9 c 0,0 1.721,0.162 2.116,-0.225 0.395,-0.388 2.038,-2.342 2.038,-2.342 -0.528,0.531 -1.889,0.374 -1.905,0.374 C 68.197,30.4 66.48,30.36 66.48,30.36 l -0.029,-1.814 z"
         sodipodi:nodetypes="ccccccscc"
         inkscape:r_cx="true"
         inkscape:r_cy="true"
         style="fill-rule:evenodd"
         id="path139-9"
         inkscape:connector-curvature="0" />
      <path
         d="m 68.748,30.061 -1.411,-2.31 2.726,-1.379 c 0,0 1.295,2.141 0.821,2.933 -0.479,0.799 -1.381,0.744 -2.136,0.756 z"
         sodipodi:nodetypes="ccczc"
         inkscape:r_cx="true"
         inkscape:r_cy="true"
         style="color:#000000;fill-opacity:0.30952005;fill-rule:evenodd"
         id="path140-9"
         inkscape:connector-curvature="0" />
      <path
         d="m 62.17,28.376 -1.208,-3.183 -3.524,0.249 1.446,1.054 c 0,0 -0.999,1.41 -0.86,1.946 0.139,0.535 0.923,2.754 0.923,2.754 -0.197,-0.722 0.618,-1.823 0.626,-1.838 0.212,-0.378 1.103,-1.846 1.103,-1.846 l 1.494,0.864 z"
         sodipodi:nodetypes="ccccccscc"
         inkscape:r_cx="true"
         inkscape:r_cy="true"
         style="fill-rule:evenodd"
         id="path142-1"
         inkscape:connector-curvature="0" />
      <path
         d="m 59.753,29.661 2.706,-0.071 -0.164,3.051 c 0,0 -2.502,0.054 -2.952,-0.752 -0.454,-0.813 0.044,-1.568 0.41,-2.228 z"
         sodipodi:nodetypes="ccczc"
         inkscape:r_cx="true"
         inkscape:r_cy="true"
         style="color:#000000;fill-opacity:0.30952005;fill-rule:evenodd"
         id="path143-5"
         inkscape:connector-curvature="0" />
    </g>
    <path
       inkscape:connector-curvature="0"
       id="path1841-6"
       style="fill:#c0d4db;fill-opacity:1;fill-rule:evenodd;stroke:#000000;stroke-width:3;stroke-miterlimit:4;stroke-opacity:1;stroke-dasharray:none"
       inkscape:r_cy="true"
       inkscape:r_cx="true"
       sodipodi:nodetypes="cssssscss"
       d="m 943.8898,942.91917 c -2.0222,0.005 -3.71483,0.0515 -4.63657,1.97697 -0.16034,0.3347 -5.04439,13.91805 -5.27909,14.43492 -2.0102,4.43533 -0.15646,10.02143 3.72627,9.98437 0.73836,-0.008 76.50819,0.0351 77.68359,0 3.3055,-0.0956 3.7276,-6.56522 2.3063,-9.4753 -0.081,-0.16384 -6.6846,-15.12908 -6.853,-15.39415 -0.7785,-1.18373 -2.5232,-1.70255 -3.8187,-1.65398 -0.2556,0.01 -62.8757,0.12658 -63.12744,0.12717 z" />
    <path
       inkscape:connector-curvature="0"
       id="path1864-3"
       style="color:#000000;fill:#7d7d7d;fill-opacity:1;fill-rule:evenodd;display:block"
       inkscape:r_cy="true"
       inkscape:r_cx="true"
       sodipodi:nodetypes="cssssscss"
       d="m 944.77356,946.18497 c -1.8775,-0.0249 -1.99969,-0.0991 -2.42232,1.25786 -0.0976,0.31325 -4.02836,12.64636 -4.18239,13.12334 -0.52403,1.62757 0.21694,2.05782 2.03534,2.02472 0.64414,-0.0117 71.19401,0 72.21961,0 1.4564,0 1.8891,-0.4906 1.5593,-1.64509 -0.1334,-0.47113 -5.6064,-13.63769 -5.7532,-13.87229 -0.6786,-1.04721 -0.5623,-1.0441 -1.748,-1.05889 -0.2231,-0.003 -61.48721,0.17307 -61.70834,0.17035 z" />
    <path
       inkscape:connector-curvature="0"
       id="path1880-7"
       style="color:#000000;fill:#2e3436;fill-rule:evenodd;display:block"
       inkscape:r_cy="true"
       inkscape:r_cx="true"
       sodipodi:nodetypes="cccccc"
       d="m 943.76513,946.1499 c -0.70685,0.0552 -1.04693,0.26955 -1.34297,1.22137 -0.0974,0.31383 -4.02398,12.65025 -4.17801,13.13006 -0.52403,1.63058 0.17119,2.06943 1.98959,2.03628 0.0315,-0.002 3.72355,0 4.07297,0 l -0.54158,-16.38771 z" />
    <path
       inkscape:connector-curvature="0"
       id="path1888-2"
       style="color:#000000;fill:#b9b9b9;fill-opacity:1;fill-rule:evenodd;display:block"
       inkscape:r_cy="true"
       inkscape:r_cx="true"
       sodipodi:nodetypes="cscccc"
       d="m 1006.5802,945.98001 c 0.8598,0.008 1.1133,-0.0101 1.6623,1.05227 0.074,0.14531 5.4787,13.2506 5.6731,13.72846 0.6596,1.84903 -0.5966,1.81002 -2.5906,1.86269 -0.3794,0 -4.8591,-0.0429 -5.2995,-0.0429 l 0.5547,-16.60051 z" />
  </g>
  <g
     inkscape:groupmode="layer"
     id="layer2"
     inkscape:label="Layer">
    <g
       id="g4100"
       transform="translate(-20,0)">
      <g
         transform="translate(46.424969,15.583027)"
         id="g3654">
        <rect
           y="72.093643"
           x="70.062737"
           height="327.53992"
           width="402.32645"
           id="rect3055"
           style="fill:#babdb6;fill-opacity:1;stroke:#000000;stroke-width:4;stroke-linecap:round;stroke-linejoin:round;stroke-miterlimit:4;stroke-opacity:1;stroke-dasharray:none;stroke-dashoffset:0" />
        <g
           id="g12584"
           style="fill:#2e3436"
           transform="matrix(0.30440542,0,0,0.30546899,13.40637,-33.486505)">
          <rect
             transform="matrix(0.70710678,-0.70710678,0.70710678,0.70710678,0,0)"
             y="428.67398"
             x="-113.48497"
             height="52.857143"
             width="8.2142859"
             id="rect12580"
             style="fill:#2e3436;fill-opacity:1;stroke:none" />
          <rect
             style="fill:#2e3436;fill-opacity:1;stroke:none"
             id="rect12582"
             width="8.2142859"
             height="52.857143"
             x="450.99542"
             y="82.949257"
             transform="matrix(0.70710678,0.70710678,-0.70710678,0.70710678,0,0)" />
        </g>
        <rect
           style="fill:#2e3436;fill-opacity:1;stroke:none"
           id="rect12594"
           width="13.211287"
           height="3.50932"
           x="101.81106"
           y="91.560104" />
        <rect
           y="81.812065"
           x="123.18221"
           height="13.257445"
           width="13.211287"
           id="rect12596"
           style="fill:#2e3436;fill-opacity:1;stroke:none" />
      </g>
      <rect
         y="126.31186"
         x="128.24733"
         height="272.74118"
         width="91.923889"
         id="rect3662"
         style="fill:#d3d7cf;fill-opacity:1;stroke:none" />
      <rect
         style="fill:#d3d7cf;fill-opacity:1;stroke:none"
         id="rect3664"
         width="273.75134"
         height="272.74118"
         x="228.24733"
         y="126.31186" />
      <g
         inkscape:tile-y0="212.20468"
         inkscape:tile-x0="632.48487"
         inkscape:tile-h="48.596646"
         inkscape:tile-w="71.060669"
         inkscape:tile-cy="236.503"
         inkscape:tile-cx="668.0152"
         transform="translate(135.25746,-33.58957)"
         id="g4858">
        <path
           d="m 158.61114,177.86133 c -1.106,1.2e-4 -2.37741,-0.002 -3.84406,0 l -4.81468,0.0535 c -5.70234,0.0656 -6.15643,0.0122 -6.5127,1.39651 -0.1282,0.35793 -0.37904,0.8547 -0.55532,1.081 -0.30922,0.39695 -0.32349,-10.76759 -0.32349,15.56517 0,15.01133 0.0551,7.14407 0.11861,7.20618 0.0635,0.0635 16.03734,0.0941 35.49726,0.0701 l 35.37822,-0.0431 0.0485,-6.14514 c 0.0424,-25.54423 0.0325,-14.23327 -0.28036,-14.53346 -0.17747,-0.17007 -0.41939,-0.59995 -0.53375,-0.9543 -0.11436,-0.35435 -0.41446,-0.80675 -0.66854,-1.00819 -0.45185,-0.35834 -0.56152,-0.36479 -5.17044,-0.28036 -12.99691,0.0806 -25.66155,0.19822 -39.41188,0.1213 -0.4749,-0.1567 -0.67561,-0.36023 -1.00821,-1.08099 -0.61312,-1.32863 -0.178,-1.45102 -7.91998,-1.45005 z"
           id="use4730"
           inkscape:connector-curvature="0"
           style="fill:#445f80;fill-opacity:1;stroke:#000000;stroke-width:2;stroke-miterlimit:4;stroke-opacity:1;stroke-dasharray:none"
           sodipodi:nodetypes="cccccscccccscccscc" />
        <path
           d="m 169.06673,185.63234 c -2.95055,0 -4.05272,0.98902 -5.19823,3.34614 -4.93886,0.0548 -17.16185,0.0774 -18.04522,0.0774 -0.88343,0 -3.1912,1.41737 -3.1912,3.17552 l 0,34.22474 70.91867,0 0,-37.64766 c 0,-1.75822 -1.42436,-3.17552 -3.1912,-3.17552 z"
           style="color:#000000;fill:#567fb3;fill-opacity:1;stroke:#000000;stroke-width:2;stroke-miterlimit:4;stroke-opacity:1;stroke-dasharray:none"
           id="use4732"
           inkscape:connector-curvature="0"
           sodipodi:nodetypes="ccssccscc" />
      </g>
      <use
         height="744.09448"
         width="1052.3622"
         id="use4870"
         transform="translate(-4.4187724e-6,88.596649)"
         xlink:href="#g4858"
         inkscape:tiled-clone-of="#g4858"
         y="0"
         x="0" />
      <use
         height="744.09448"
         width="1052.3622"
         id="use4872"
         transform="translate(-4.4187724e-6,177.19329)"
         xlink:href="#g4858"
         inkscape:tiled-clone-of="#g4858"
         y="0"
         x="0" />
      <use
         height="744.09448"
         width="1052.3622"
         id="use4874"
         transform="translate(131.06067,1.4706748e-6)"
         xlink:href="#g4858"
         inkscape:tiled-clone-of="#g4858"
         y="0"
         x="0" />
      <use
         height="744.09448"
         width="1052.3622"
         id="use4876"
         transform="translate(131.06067,88.596649)"
         xlink:href="#g4858"
         inkscape:tiled-clone-of="#g4858"
         y="0"
         x="0" />
      <use
         height="744.09448"
         width="1052.3622"
         id="use4878"
         transform="translate(131.06067,177.19329)"
         xlink:href="#g4858"
         inkscape:tiled-clone-of="#g4858"
         y="0"
         x="0" />
    </g>
    <path
       style="fill:#394464;fill-opacity:1;stroke:none"
       d="m 481.84276,169.27728 45.72271,-19.1525 14.85987,10.64028 26.29055,44.68915 -50.29497,24.47262 z"
       id="path4119"
       inkscape:connector-curvature="0" />
    <g
       transform="translate(494.14002,62.505411)"
       id="g7429">
      <g
         id="g7431"
         transform="translate(11.111679,3.0304577)">
        <rect
           style="fill:#babdb6;fill-opacity:1;stroke:#000000;stroke-width:4;stroke-linecap:round;stroke-linejoin:round;stroke-miterlimit:4;stroke-opacity:1;stroke-dasharray:none;stroke-dashoffset:0"
           id="rect7433"
           width="433.64117"
           height="327.53989"
           x="70.062737"
           y="72.093643" />
        <g
           transform="matrix(0.30440542,0,0,0.30546899,13.40637,-33.486505)"
           style="fill:#2e3436"
           id="g7435">
          <rect
             style="fill:#2e3436;fill-opacity:1;stroke:none"
             id="rect7437"
             width="8.2142859"
             height="52.857143"
             x="-113.48497"
             y="428.67398"
             transform="matrix(0.70710678,-0.70710678,0.70710678,0.70710678,0,0)" />
          <rect
             transform="matrix(0.70710678,0.70710678,-0.70710678,0.70710678,0,0)"
             y="82.949257"
             x="450.99542"
             height="52.857143"
             width="8.2142859"
             id="rect7439"
             style="fill:#2e3436;fill-opacity:1;stroke:none" />
        </g>
        <rect
           y="91.560104"
           x="101.81106"
           height="3.50932"
           width="13.211287"
           id="rect7441"
           style="fill:#2e3436;fill-opacity:1;stroke:none" />
        <rect
           style="fill:#2e3436;fill-opacity:1;stroke:none"
           id="rect7443"
           width="13.211287"
           height="13.257445"
           x="123.18221"
           y="81.812065" />
      </g>
      <rect
         style="fill:#d3d7cf;fill-opacity:1;stroke:none"
         id="rect7445"
         width="91.923889"
         height="272.74118"
         x="92.934036"
         y="113.75929" />
      <rect
         y="113.75929"
         x="192.93404"
         height="272.74118"
         width="305.06607"
         id="rect7447"
         style="fill:#d3d7cf;fill-opacity:1;stroke:none" />
    </g>
    <g
       id="g4322"
       transform="translate(547.83502,-582.37308)">
      <path
         sodipodi:nodetypes="cccccc"
         inkscape:connector-curvature="0"
         id="path4129"
         d="m 215.34402,794.3871 0,54.56527 -52.75071,0 0,-66.72215 0,0 41.62556,0 z"
         style="fill:#8b8b8b;fill-opacity:1;stroke:#000000;stroke-width:4;stroke-linecap:round;stroke-linejoin:round;stroke-miterlimit:4;stroke-opacity:1;stroke-dasharray:none;stroke-dashoffset:0" />
      <path
         inkscape:connector-curvature="0"
         id="rect4097"
         d="m 213.82878,795.55602 -11.12515,0 1e-5,-12.06311"
         style="fill:#292929;fill-opacity:1;stroke:#000000;stroke-width:4;stroke-linecap:round;stroke-linejoin:round;stroke-miterlimit:4;stroke-opacity:1;stroke-dasharray:none;stroke-dashoffset:0" />
      <g
         style="fill:#2e3436;stroke:#2e3436"
         transform="matrix(0.29671442,0,0,0.29671442,160.13353,790.30773)"
         id="g4339">
        <rect
           x="31.101999"
           y="72.299004"
           width="39.212002"
           height="48.09"
           ry="7.3985"
           style="color:#000000;fill:#2e3436;stroke:#2e3436"
           id="rect3807-8" />
        <path
           transform="matrix(0.75222,0,0,1.0722,-14.421,15.149)"
           d="M 151.34,121.29 72.422,75.726 151.34,30.162 v 91.128 z"
           style="color:#000000;fill:#2e3436;stroke:#2e3436;stroke-width:7.72609997;stroke-linecap:round;stroke-linejoin:round"
           id="path3809"
           inkscape:connector-curvature="0" />
        <path
           transform="matrix(0.73652,0,0,0.96503,-51.057,0.47397)"
           d="m 210.86,99.344 c 0,19.173 -9.606,34.716 -21.456,34.716 -11.85,0 -21.456,-15.543 -21.456,-34.716 0,-19.173 9.606,-34.716 21.456,-34.716 11.85,0 21.456,15.543 21.456,34.716 z"
           style="color:#000000;fill:#2e3436;stroke:#2e3436;stroke-width:8.10000038;stroke-linecap:round;stroke-linejoin:round"
           id="path4323"
           inkscape:connector-curvature="0" />
        <path
           d="m 121.71,124.32 c 5.9,-7.9392 9.2195,-17.765 9.343,-27.656 0.12566,-10.064 -3.0618,-20.142 -8.9516,-28.304"
           id="path4329"
           inkscape:connector-curvature="0"
           style="fill:#2e3436;stroke:#2e3436;stroke-width:12;stroke-linecap:round;stroke-linejoin:round" />
        <path
           d="m 143.22,132.85 c 7.6985,-10.359 12.03,-23.18 12.191,-36.086 0.16396,-13.132 -3.9951,-26.282 -11.68,-36.932"
           id="path4333"
           inkscape:connector-curvature="0"
           style="fill:#2e3436;stroke:#2e3436;stroke-width:15.65799999;stroke-linecap:round;stroke-linejoin:round" />
      </g>
    </g>
    <g
       transform="translate(547.83502,-482.37308)"
       id="g7599">
      <path
         style="fill:#8b8b8b;fill-opacity:1;stroke:#000000;stroke-width:4;stroke-linecap:round;stroke-linejoin:round;stroke-miterlimit:4;stroke-opacity:1;stroke-dasharray:none;stroke-dashoffset:0"
         d="m 215.34402,794.3871 0,54.56527 -52.75071,0 0,-66.72215 0,0 41.62556,0 z"
         id="path7601"
         inkscape:connector-curvature="0"
         sodipodi:nodetypes="cccccc" />
      <path
         style="fill:#292929;fill-opacity:1;stroke:#000000;stroke-width:4;stroke-linecap:round;stroke-linejoin:round;stroke-miterlimit:4;stroke-opacity:1;stroke-dasharray:none;stroke-dashoffset:0"
         d="m 213.82878,795.55602 -11.12515,0 1e-5,-12.06311"
         id="path7603"
         inkscape:connector-curvature="0" />
      <g
         id="g7605"
         transform="matrix(0.29671442,0,0,0.29671442,160.13353,790.30773)"
         style="fill:#2e3436;stroke:#2e3436">
        <rect
           id="rect7607"
           style="color:#000000;fill:#2e3436;stroke:#2e3436"
           ry="7.3985"
           height="48.09"
           width="39.212002"
           y="72.299004"
           x="31.101999" />
        <path
           inkscape:connector-curvature="0"
           id="path7609"
           style="color:#000000;fill:#2e3436;stroke:#2e3436;stroke-width:7.72609997;stroke-linecap:round;stroke-linejoin:round"
           d="M 151.34,121.29 72.422,75.726 151.34,30.162 v 91.128 z"
           transform="matrix(0.75222,0,0,1.0722,-14.421,15.149)" />
        <path
           inkscape:connector-curvature="0"
           id="path7611"
           style="color:#000000;fill:#2e3436;stroke:#2e3436;stroke-width:8.10000038;stroke-linecap:round;stroke-linejoin:round"
           d="m 210.86,99.344 c 0,19.173 -9.606,34.716 -21.456,34.716 -11.85,0 -21.456,-15.543 -21.456,-34.716 0,-19.173 9.606,-34.716 21.456,-34.716 11.85,0 21.456,15.543 21.456,34.716 z"
           transform="matrix(0.73652,0,0,0.96503,-51.057,0.47397)" />
        <path
           style="fill:#2e3436;stroke:#2e3436;stroke-width:12;stroke-linecap:round;stroke-linejoin:round"
           inkscape:connector-curvature="0"
           id="path7613"
           d="m 121.71,124.32 c 5.9,-7.9392 9.2195,-17.765 9.343,-27.656 0.12566,-10.064 -3.0618,-20.142 -8.9516,-28.304" />
        <path
           style="fill:#2e3436;stroke:#2e3436;stroke-width:15.65799999;stroke-linecap:round;stroke-linejoin:round"
           inkscape:connector-curvature="0"
           id="path7615"
           d="m 143.22,132.85 c 7.6985,-10.359 12.03,-23.18 12.191,-36.086 0.16396,-13.132 -3.9951,-26.282 -11.68,-36.932" />
      </g>
    </g>
    <path
       style="fill:#8b8b8b;fill-opacity:1;stroke:#000000;stroke-width:4;stroke-linecap:round;stroke-linejoin:round;stroke-miterlimit:4;stroke-opacity:1;stroke-dasharray:none;stroke-dashoffset:0"
       d="m 863.17906,312.01402 0,54.56527 -52.7507,0 0,-66.72215 0,0 41.6255,0 z"
       id="path7619"
       inkscape:connector-curvature="0"
       sodipodi:nodetypes="cccccc" />
    <path
       style="fill:#292929;fill-opacity:1;stroke:#000000;stroke-width:4;stroke-linecap:round;stroke-linejoin:round;stroke-miterlimit:4;stroke-opacity:1;stroke-dasharray:none;stroke-dashoffset:0"
       d="m 861.66376,313.18294 -11.1251,0 0,-12.06311"
       id="path7621"
       inkscape:connector-curvature="0" />
    <path
       style="fill:#8b8b8b;fill-opacity:1;stroke:#000000;stroke-width:4;stroke-linecap:round;stroke-linejoin:round;stroke-miterlimit:4;stroke-opacity:1;stroke-dasharray:none;stroke-dashoffset:0"
       d="m 963.17906,212.01402 0,54.56527 -52.7507,0 0,-66.72215 0,0 41.6255,0 z"
       id="path7676"
       inkscape:connector-curvature="0"
       sodipodi:nodetypes="cccccc" />
    <path
       style="fill:#292929;fill-opacity:1;stroke:#000000;stroke-width:4;stroke-linecap:round;stroke-linejoin:round;stroke-miterlimit:4;stroke-opacity:1;stroke-dasharray:none;stroke-dashoffset:0"
       d="m 961.66376,213.18294 -11.1251,0 0,-12.06311"
       id="path7678"
       inkscape:connector-curvature="0" />
    <path
       inkscape:connector-curvature="0"
       id="path7680"
       d="m 920.24386,222.35069 32.3249,0"
       style="fill:none;stroke:#000000;stroke-width:3;stroke-linecap:butt;stroke-linejoin:miter;stroke-miterlimit:4;stroke-opacity:1;stroke-dasharray:none" />
    <path
       style="fill:none;stroke:#000000;stroke-width:3;stroke-linecap:butt;stroke-linejoin:miter;stroke-miterlimit:4;stroke-opacity:1;stroke-dasharray:none"
       d="m 920.24386,230.35069 32.3249,0"
       id="path7682"
       inkscape:connector-curvature="0" />
    <path
       inkscape:connector-curvature="0"
       id="path7684"
       d="m 920.24386,238.35069 32.3249,0"
       style="fill:none;stroke:#000000;stroke-width:3;stroke-linecap:butt;stroke-linejoin:miter;stroke-miterlimit:4;stroke-opacity:1;stroke-dasharray:none" />
    <path
       style="fill:none;stroke:#000000;stroke-width:3;stroke-linecap:butt;stroke-linejoin:miter;stroke-miterlimit:4;stroke-opacity:1;stroke-dasharray:none"
       d="m 920.24386,246.35069 32.3249,0"
       id="path7686"
       inkscape:connector-curvature="0" />
    <path
       inkscape:connector-curvature="0"
       id="path7688"
       d="m 920.24386,254.35069 32.3249,0"
       style="fill:none;stroke:#000000;stroke-width:3;stroke-linecap:butt;stroke-linejoin:miter;stroke-miterlimit:4;stroke-opacity:1;stroke-dasharray:none" />
    <g
       id="g4057"
       transform="matrix(0.88646077,-0.46280375,0.46280375,0.88646077,-322.03089,361.22738)">
      <path
         sodipodi:nodetypes="cccccc"
         inkscape:connector-curvature="0"
         id="path4059"
         d="m 863.17906,212.01402 0,54.56527 -52.7507,0 0,-66.72215 0,0 41.6255,0 z"
         style="fill:#8b8b8b;fill-opacity:1;stroke:#000000;stroke-width:4;stroke-linecap:round;stroke-linejoin:round;stroke-miterlimit:4;stroke-opacity:1;stroke-dasharray:none;stroke-dashoffset:0" />
      <path
         inkscape:connector-curvature="0"
         id="path4061"
         d="m 861.66376,213.18294 -11.1251,0 0,-12.06311"
         style="fill:#292929;fill-opacity:1;stroke:#000000;stroke-width:4;stroke-linecap:round;stroke-linejoin:round;stroke-miterlimit:4;stroke-opacity:1;stroke-dasharray:none;stroke-dashoffset:0" />
      <path
         style="fill:none;stroke:#000000;stroke-width:3;stroke-linecap:butt;stroke-linejoin:miter;stroke-miterlimit:4;stroke-opacity:1;stroke-dasharray:none"
         d="m 820.24386,222.35069 32.3249,0"
         id="path4063"
         inkscape:connector-curvature="0" />
      <path
         inkscape:connector-curvature="0"
         id="path4065"
         d="m 820.24386,230.35069 32.3249,0"
         style="fill:none;stroke:#000000;stroke-width:3;stroke-linecap:butt;stroke-linejoin:miter;stroke-miterlimit:4;stroke-opacity:1;stroke-dasharray:none" />
      <path
         style="fill:none;stroke:#000000;stroke-width:3;stroke-linecap:butt;stroke-linejoin:miter;stroke-miterlimit:4;stroke-opacity:1;stroke-dasharray:none"
         d="m 820.24386,238.35069 32.3249,0"
         id="path4067"
         inkscape:connector-curvature="0" />
      <path
         inkscape:connector-curvature="0"
         id="path4069"
         d="m 820.24386,246.35069 32.3249,0"
         style="fill:none;stroke:#000000;stroke-width:3;stroke-linecap:butt;stroke-linejoin:miter;stroke-miterlimit:4;stroke-opacity:1;stroke-dasharray:none" />
      <path
         style="fill:none;stroke:#000000;stroke-width:3;stroke-linecap:butt;stroke-linejoin:miter;stroke-miterlimit:4;stroke-opacity:1;stroke-dasharray:none"
         d="m 820.24386,254.35069 32.3249,0"
         id="path4071"
         inkscape:connector-curvature="0" />
    </g>
    <g
       id="g7368"
       transform="matrix(0.78641724,-0.34164903,0.34164903,0.78641724,106.8544,-134.64806)">
      <path
         sodipodi:nodetypes="ccccccccc"
         d="m 330.29356,555.18093 -1.97508,42.40374 14.13521,-1.53257 6.26892,16.28758 c 1.91997,-0.28152 3.35977,-0.89939 5.25191,-2.14999 l -6.20644,-16.24726 11.03923,-7.70232 -28.51054,-31.06147 z"
         style="fill:#cccccc;stroke:#000000;stroke-width:3.49885178;stroke-linejoin:bevel;stroke-miterlimit:4;stroke-dasharray:none"
         id="path3594-1-0"
         inkscape:connector-curvature="0" />
      <path
         sodipodi:nodetypes="cccc"
         inkscape:connector-curvature="0"
         id="path7360"
         d="m 331.48919,558.36394 -1.93414,38.27554 12.62278,-1.62875 c -6.6326,-13.16195 -8.43886,-25.02517 -10.68864,-36.64679 z"
         style="fill:#b6b6b6;fill-opacity:1;stroke:none" />
    </g>
    <path
       sodipodi:nodetypes="cccccc"
       inkscape:connector-curvature="0"
       id="path10851"
       d="m 863.17906,212.01402 0,54.56527 -52.7507,0 0,-66.72215 0,0 41.6255,0 z"
       style="fill:#8b8b8b;fill-opacity:1;stroke:#000000;stroke-width:4;stroke-linecap:round;stroke-linejoin:round;stroke-miterlimit:4;stroke-opacity:1;stroke-dasharray:none;stroke-dashoffset:0" />
    <path
       inkscape:connector-curvature="0"
       id="path10853"
       d="m 861.66376,213.18294 -11.1251,0 0,-12.06311"
       style="fill:#292929;fill-opacity:1;stroke:#000000;stroke-width:4;stroke-linecap:round;stroke-linejoin:round;stroke-miterlimit:4;stroke-opacity:1;stroke-dasharray:none;stroke-dashoffset:0" />
    <path
       style="fill:none;stroke:#000000;stroke-width:3;stroke-linecap:butt;stroke-linejoin:miter;stroke-miterlimit:4;stroke-opacity:1;stroke-dasharray:none"
       d="m 820.24386,222.35069 32.3249,0"
       id="path10855"
       inkscape:connector-curvature="0" />
    <path
       inkscape:connector-curvature="0"
       id="path10857"
       d="m 820.24386,230.35069 32.3249,0"
       style="fill:none;stroke:#000000;stroke-width:3;stroke-linecap:butt;stroke-linejoin:miter;stroke-miterlimit:4;stroke-opacity:1;stroke-dasharray:none" />
    <path
       style="fill:none;stroke:#000000;stroke-width:3;stroke-linecap:butt;stroke-linejoin:miter;stroke-miterlimit:4;stroke-opacity:1;stroke-dasharray:none"
       d="m 820.24386,238.35069 32.3249,0"
       id="path10859"
       inkscape:connector-curvature="0" />
    <path
       inkscape:connector-curvature="0"
       id="path10861"
       d="m 820.24386,246.35069 32.3249,0"
       style="fill:none;stroke:#000000;stroke-width:3;stroke-linecap:butt;stroke-linejoin:miter;stroke-miterlimit:4;stroke-opacity:1;stroke-dasharray:none" />
    <path
       style="fill:none;stroke:#000000;stroke-width:3;stroke-linecap:butt;stroke-linejoin:miter;stroke-miterlimit:4;stroke-opacity:1;stroke-dasharray:none"
       d="m 820.24386,254.35069 32.3249,0"
       id="path10863"
       inkscape:connector-curvature="0" />
    <g
       id="g11384"
       transform="matrix(0.73877551,0,0,0.73877551,189.21792,140.22264)">
      <g
         id="text10865"
         style="font-size:40px;font-style:normal;font-weight:normal;line-height:125%;letter-spacing:0px;word-spacing:0px;fill:#eeeeec;fill-opacity:1;stroke:#000000;stroke-width:6.76795578;stroke-miterlimit:4;stroke-opacity:1;stroke-dasharray:none;font-family:Sans">
        <path
           id="path11378"
           style="stroke:#000000;stroke-width:6.76795578;stroke-miterlimit:4;stroke-opacity:1;stroke-dasharray:none"
           d="m 560.54126,84.016365 0,10.878906 10.87891,0 0,3.320313 -10.87891,0 0,10.878906 -3.28125,0 0,-10.878906 -10.87891,0 0,-3.320313 10.87891,0 0,-10.878906 3.28125,0"
           inkscape:connector-curvature="0" />
      </g>
      <g
         style="font-size:40px;font-style:normal;font-weight:normal;line-height:125%;letter-spacing:0px;word-spacing:0px;fill:#eeeeec;fill-opacity:1;stroke:none;font-family:Sans"
         id="g11380">
        <path
           d="m 560.54126,84.016365 0,10.878906 10.87891,0 0,3.320313 -10.87891,0 0,10.878906 -3.28125,0 0,-10.878906 -10.87891,0 0,-3.320313 10.87891,0 0,-10.878906 3.28125,0"
           style="stroke:none"
           id="path11382"
           inkscape:connector-curvature="0" />
      </g>
    </g>
  </g>
</svg>
